lab3/L3P1/simulation/qsim/L3P1.msim.vcd
$comment
	File created using the following command:
		vcd file L3P1.msim.vcd -direction
$end
$date
	Sun Oct 04 02:48:07 2020
$end
$version
	ModelSim Version 10.1d
$end
$timescale
	1ps
$end
$scope module L3P1_vlg_vec_tst $end
$var reg 1 ! Clk $end
$var reg 1 " R $end
$var reg 1 # S $end
$var wire 1 $ Q $end
$var wire 1 % sampler $end
$scope module i1 $end
$var wire 1 & gnd $end
$var wire 1 ' vcc $end
$var wire 1 ( unknown $end
$var tri1 1 ) devclrn $end
$var tri1 1 * devpor $end
$var tri1 1 + devoe $end
$var wire 1 , S_g~combout $end
$var wire 1 - S~input_o $end
$var wire 1 . Q~output_o $end
$var wire 1 / R~input_o $end
$var wire 1 0 Clk~input_o $end
$var wire 1 1 R_g~combout $end
$var wire 1 2 Qb~combout $end
$var wire 1 3 Qa~combout $end
$upscope $end
$upscope $end
$enddefinitions $end
#0
$dumpvars
0!
0"
0#
x$
x%
0&
1'
x(
1)
1*
1+
0,
0-
x.
0/
00
01
x2
x3
$end
#10000
1!
1"
10
1/
0%
11
03
12
0.
0$
#20000
0!
0"
00
0/
1%
01
#25000
1#
1-
0%
#30000
1!
10
1%
1,
02
13
1.
1$
#35000
0#
0-
0%
0,
#40000
0!
00
1%
#45000
1"
1/
0%
#50000
1!
10
1%
11
03
12
0.
0$
#55000
0"
0/
0%
01
#60000
0!
00
1%
#70000
1!
10
0%
#80000
0!
00
1%
#90000
1!
10
0%
#100000
0!
00
1%
#110000
1!
10
0%
#120000
0!
00
1%
#130000
1!
10
0%
#140000
0!
00
1%
#150000
1!
10
0%
#160000
0!
00
1%
#170000
1!
10
0%
#180000
0!
00
1%
#190000
1!
10
0%
#200000
0!
00
1%
#210000
1!
10
0%
#220000
0!
00
1%
#230000
1!
10
0%
#240000
0!
00
1%
#250000
1!
10
0%
#260000
0!
00
1%
#270000
1!
10
0%
#280000
0!
00
1%
#290000
1!
10
0%
#300000
0!
00
1%
#310000
1!
10
0%
#320000
0!
00
1%
#330000
1!
10
0%
#340000
0!
00
1%
#350000
1!
10
0%
#360000
0!
00
1%
#370000
1!
10
0%
#380000
0!
00
1%
#390000
1!
10
0%
#400000
0!
00
1%
#410000
1!
10
0%
#420000
0!
00
1%
#430000
1!
10
0%
#440000
0!
00
1%
#450000
1!
10
0%
#460000
0!
00
1%
#470000
1!
10
0%
#480000
0!
00
1%
#490000
1!
10
0%
#500000
0!
00
1%
#510000
1!
10
0%
#520000
0!
00
1%
#530000
1!
10
0%
#540000
0!
00
1%
#550000
1!
10
0%
#560000
0!
00
1%
#570000
1!
10
0%
#580000
0!
00
1%
#590000
1!
10
0%
#600000
0!
00
1%
#610000
1!
10
0%
#620000
0!
00
1%
#630000
1!
10
0%
#640000
0!
00
1%
#650000
1!
10
0%
#660000
0!
00
1%
#670000
1!
10
0%
#680000
0!
00
1%
#690000
1!
10
0%
#700000
0!
00
1%
#710000
1!
10
0%
#720000
0!
00
1%
#730000
1!
10
0%
#740000
0!
00
1%
#750000
1!
10
0%
#760000
0!
00
1%
#770000
1!
10
0%
#780000
0!
00
1%
#790000
1!
10
0%
