lab7/L7P2_restored/simulation/qsim/L7P2.msim.vcd
$comment
	File created using the following command:
		vcd file L7P2.msim.vcd -direction
$end
$date
	Fri Oct 30 15:02:44 2020
$end
$version
	ModelSim Version 10.1d
$end
$timescale
	1ps
$end
$scope module L7P2_vlg_vec_tst $end
$var reg 4 ! KEY [3:0] $end
$var reg 10 " SW [9:0] $end
$var wire 1 # LEDG [9] $end
$var wire 1 $ LEDG [8] $end
$var wire 1 % LEDG [7] $end
$var wire 1 & LEDG [6] $end
$var wire 1 ' LEDG [5] $end
$var wire 1 ( LEDG [4] $end
$var wire 1 ) LEDG [3] $end
$var wire 1 * LEDG [2] $end
$var wire 1 + LEDG [1] $end
$var wire 1 , LEDG [0] $end
$var wire 1 - sampler $end
$scope module i1 $end
$var wire 1 . gnd $end
$var wire 1 / vcc $end
$var wire 1 0 unknown $end
$var tri1 1 1 devclrn $end
$var tri1 1 2 devpor $end
$var tri1 1 3 devoe $end
$var wire 1 4 KEY[1]~input_o $end
$var wire 1 5 KEY[2]~input_o $end
$var wire 1 6 KEY[3]~input_o $end
$var wire 1 7 SW[2]~input_o $end
$var wire 1 8 SW[3]~input_o $end
$var wire 1 9 SW[4]~input_o $end
$var wire 1 : SW[5]~input_o $end
$var wire 1 ; SW[6]~input_o $end
$var wire 1 < SW[7]~input_o $end
$var wire 1 = SW[8]~input_o $end
$var wire 1 > SW[9]~input_o $end
$var wire 1 ? KEY[0]~input_o $end
$var wire 1 @ LEDG[0]~output_o $end
$var wire 1 A LEDG[1]~output_o $end
$var wire 1 B LEDG[2]~output_o $end
$var wire 1 C LEDG[3]~output_o $end
$var wire 1 D LEDG[4]~output_o $end
$var wire 1 E LEDG[5]~output_o $end
$var wire 1 F LEDG[6]~output_o $end
$var wire 1 G LEDG[7]~output_o $end
$var wire 1 H LEDG[8]~output_o $end
$var wire 1 I LEDG[9]~output_o $end
$var wire 1 J SW[0]~input_o $end
$var wire 1 K SW[1]~input_o $end
$var wire 1 L y_Q~20_combout $end
$var wire 1 M y_Q.I~q $end
$var wire 1 N y_Q~14_combout $end
$var wire 1 O y_Q~15_combout $end
$var wire 1 P y_Q.F~q $end
$var wire 1 Q y_Q~18_combout $end
$var wire 1 R y_Q.G~q $end
$var wire 1 S y_Q~16_combout $end
$var wire 1 T y_Q.H~q $end
$var wire 1 U y_Q~17_combout $end
$var wire 1 V y_Q.C~q $end
$var wire 1 W y_Q~13_combout $end
$var wire 1 X y_Q.D~q $end
$var wire 1 Y y_Q~19_combout $end
$var wire 1 Z y_Q.E~q $end
$var wire 1 [ y_Q~11_combout $end
$var wire 1 \ y_Q~12_combout $end
$var wire 1 ] y_Q.B~q $end
$var wire 1 ^ WideOr2~combout $end
$var wire 1 _ WideOr1~0_combout $end
$var wire 1 ` WideOr0~combout $end
$var wire 1 a z~0_combout $end
$upscope $end
$upscope $end
$enddefinitions $end
#0
$dumpvars
bx0 !
bx01 "
0,
0+
0*
0)
0(
0'
0&
0%
0$
0#
x-
0.
1/
x0
11
12
13
x4
x5
x6
x7
x8
x9
x:
x;
x<
x=
x>
0?
0@
0A
0B
0C
0D
0E
0F
0G
0H
0I
1J
0K
0L
0M
0N
0O
0P
0Q
0R
0S
0T
0U
0V
0W
0X
0Y
0Z
1[
1\
0]
0^
0_
0`
0a
$end
#10000
bx1 !
1?
0-
#20000
bx0 !
0?
1-
1]
0[
1U
1^
0\
1@
1,
#30000
bx1 !
1?
0-
#40000
bx00 "
bx0 !
0?
0J
1-
0U
1V
0]
1_
0^
1A
0@
1+
0,
#50000
bx1 !
1?
0-
#60000
bx0 !
0?
1-
0V
0_
0A
0+
#70000
bx1 !
1?
0-
#80000
bx01 "
bx0 !
0?
1J
1-
1[
1\
#90000
bx1 !
1?
0-
#100000
bx0 !
0?
1-
1]
0[
1U
1^
0\
1@
1,
#110000
bx1 !
1?
0-
#111360
bx11 "
1K
1-
0U
1N
1O
#120000
bx0 !
0?
0-
1P
0]
1Q
0O
1`
1B
1*
#130000
bx1 !
1?
1-
#132096
bx01 "
0K
0-
1[
0Q
0N
1\
#140000
bx0 !
0?
1-
0P
1]
0[
1U
0`
0\
0B
0*
#150000
bx1 !
1?
0-
#160000
bx0 !
0?
1-
1V
0]
1W
1[
0U
1_
0^
1A
0@
1+
0,
#170000
bx1 !
1?
0-
#180000
bx0 !
0?
1-
0V
1X
0W
1Y
1^
1@
1,
#190000
bx1 !
1?
0-
#200000
bx0 !
0?
1-
0X
1Z
0_
0^
1a
1`
0A
0@
1I
1B
0+
0,
1#
1*
#210000
bx1 !
1?
0-
#210944
bx11 "
1K
1-
0[
0Y
1N
1O
#220000
bx0 !
0?
0-
1P
0Z
1Q
0O
1^
0a
1@
0I
1,
0#
#230000
bx1 !
1?
1-
#240000
bx0 !
0?
0-
0P
1R
0Q
1S
0^
1_
0@
1A
0,
1+
#250000
bx1 !
1?
1-
#260000
bx0 !
0?
0-
0R
1T
0S
1L
1^
1@
1,
#270000
bx1 !
1?
1-
#280000
bx0 !
0?
0-
0T
1M
1O
0N
1C
1)
0`
0_
0^
1a
0O
0B
0A
0@
1I
0*
0+
0,
1#
#290000
bx1 !
1?
1-
#300000
bx0 !
0?
0-
#310000
bx1 !
1?
1-
#311040
bx01 "
0K
0-
1[
0L
1\
#320000
bx0 !
0?
1-
1]
0M
0[
1U
0C
0)
1^
0a
0\
1@
0I
1,
0#
#330000
bx1 !
1?
0-
#331264
bx11 "
1K
1-
0U
1N
1O
#340000
bx0 !
0?
0-
1P
0]
1Q
0O
1`
1B
1*
#350000
bx1 !
1?
1-
#360000
bx0 !
0?
0-
0P
1R
0Q
1S
0^
1_
0@
1A
0,
1+
#370000
bx1 !
1?
1-
#370432
bx01 "
0K
0-
1[
0S
0N
1\
#380000
bx0 !
0?
1-
0R
1]
0[
1U
0`
0_
1^
0\
0B
0A
1@
0*
0+
1,
#390000
bx1 !
1?
0-
#393472
bx00 "
0J
1-
0U
#400000
bx0 !
0?
0-
0]
0^
0@
0,
#410000
bx1 !
1?
1-
#420000
bx0 !
0?
0-
#430000
bx1 !
1?
1-
#435712
bx01 "
1J
0-
1[
1\
#440000
bx0 !
0?
1-
1]
0[
1U
1^
0\
1@
1,
#450000
bx1 !
1?
0-
#460000
bx0 !
0?
1-
1V
0]
1W
1[
0U
1_
0^
1A
0@
1+
0,
#470000
bx1 !
1?
0-
#480000
bx0 !
0?
1-
0V
1X
0W
1Y
1^
1@
1,
#490000
bx1 !
1?
0-
#500000
bx0 !
0?
1-
0X
1Z
0_
0^
1a
1`
0A
0@
1I
1B
0+
0,
1#
1*
#510000
bx1 !
1?
0-
#520000
bx0 !
0?
1-
#530000
bx1 !
1?
0-
#540000
bx0 !
0?
1-
#550000
bx1 !
1?
0-
#560000
bx0 !
0?
1-
#570000
bx1 !
1?
0-
#580000
bx0 !
0?
1-
#590000
bx1 !
1?
0-
#600000
bx0 !
0?
1-
#610000
bx1 !
1?
0-
#620000
bx0 !
0?
1-
#630000
bx1 !
1?
0-
#640000
bx0 !
0?
1-
#650000
bx1 !
1?
0-
#660000
bx0 !
0?
1-
#670000
bx1 !
1?
0-
#680000
bx0 !
0?
1-
#690000
bx1 !
1?
0-
#700000
bx0 !
0?
1-
#710000
bx1 !
1?
0-
#720000
bx0 !
0?
1-
#730000
bx1 !
1?
0-
#740000
bx0 !
0?
1-
#750000
bx1 !
1?
0-
#760000
bx0 !
0?
1-
#770000
bx1 !
1?
0-
#780000
bx0 !
0?
1-
#790000
bx1 !
1?
0-
#800000
bx0 !
0?
1-
#810000
bx1 !
1?
0-
#820000
bx0 !
0?
1-
#830000
bx1 !
1?
0-
#840000
bx0 !
0?
1-
#850000
bx1 !
1?
0-
#860000
bx0 !
0?
1-
#870000
bx1 !
1?
0-
#880000
bx0 !
0?
1-
#890000
bx1 !
1?
0-
#900000
bx0 !
0?
1-
#910000
bx1 !
1?
0-
#920000
bx0 !
0?
1-
#930000
bx1 !
1?
0-
#940000
bx0 !
0?
1-
#950000
bx1 !
1?
0-
#960000
bx0 !
0?
1-
#970000
bx1 !
1?
0-
#980000
bx0 !
0?
1-
#990000
bx1 !
1?
0-
