lab11/L11P2_restored/simulation/qsim/L11P2.msim.vcd
$comment
	File created using the following command:
		vcd file L11P2.msim.vcd -direction
$end
$date
	Sun Nov 15 19:28:25 2020
$end
$version
	ModelSim Version 10.1d
$end
$timescale
	1ps
$end
$scope module L11P2_vlg_vec_tst $end
$var reg 1 ! Clock $end
$var reg 8 " Data [7:0] $end
$var reg 1 # Resetn $end
$var reg 1 $ s $end
$var wire 1 % Addr [4] $end
$var wire 1 & Addr [3] $end
$var wire 1 ' Addr [2] $end
$var wire 1 ( Addr [1] $end
$var wire 1 ) Addr [0] $end
$var wire 1 * Done $end
$var wire 1 + Found $end
$var wire 1 , sampler $end
$scope module i1 $end
$var wire 1 - gnd $end
$var wire 1 . vcc $end
$var wire 1 / unknown $end
$var tri1 1 0 devclrn $end
$var tri1 1 1 devpor $end
$var tri1 1 2 devoe $end
$var wire 1 3 LessThan0~2_combout $end
$var wire 1 4 min_reg|Q~4_combout $end
$var wire 1 5 min_reg|Q~5_combout $end
$var wire 1 6 Selector2~0_combout $end
$var wire 1 7 Selector2~1_combout $end
$var wire 1 8 Clock~combout $end
$var wire 1 9 Clock~clkctrl_outclk $end
$var wire 1 : Resetn~combout $end
$var wire 1 ; ~GND~combout $end
$var wire 1 < s~combout $end
$var wire 1 = Selector0~0_combout $end
$var wire 1 > Resetn~clkctrl_outclk $end
$var wire 1 ? y.S1~regout $end
$var wire 1 @ Add2~1 $end
$var wire 1 A Add2~3 $end
$var wire 1 B Add2~4_combout $end
$var wire 1 C min_reg|Q~3_combout $end
$var wire 1 D Add2~5 $end
$var wire 1 E Add2~6_combout $end
$var wire 1 F min_reg|Q~2_combout $end
$var wire 1 G Add2~0_combout $end
$var wire 1 H max_reg|Q~3_combout $end
$var wire 1 I y~12_combout $end
$var wire 1 J y.S6~regout $end
$var wire 1 K max_reg|Q[4]~1_combout $end
$var wire 1 L shift_reg|Q[0]~5_cout $end
$var wire 1 M shift_reg|Q[0]~7 $end
$var wire 1 N shift_reg|Q[1]~9 $end
$var wire 1 O shift_reg|Q[2]~10_combout $end
$var wire 1 P Add2~7 $end
$var wire 1 Q Add2~8_combout $end
$var wire 1 R min_reg|Q~0_combout $end
$var wire 1 S max_reg|Q~2_combout $end
$var wire 1 T LessThan0~1_combout $end
$var wire 1 U max_reg|Q~5_combout $end
$var wire 1 V LessThan0~3_combout $end
$var wire 1 W Selector1~0_combout $end
$var wire 1 X max_reg|Q~0_combout $end
$var wire 1 Y LessThan0~0_combout $end
$var wire 1 Z Selector1~1_combout $end
$var wire 1 [ y.S2~regout $end
$var wire 1 \ shift_reg|Q[2]~11 $end
$var wire 1 ] shift_reg|Q[3]~12_combout $end
$var wire 1 ^ LessThan2~1_cout $end
$var wire 1 _ LessThan2~3_cout $end
$var wire 1 ` LessThan2~5_cout $end
$var wire 1 a LessThan2~7_cout $end
$var wire 1 b LessThan2~9_cout $end
$var wire 1 c LessThan2~11_cout $end
$var wire 1 d LessThan2~13_cout $end
$var wire 1 e LessThan2~14_combout $end
$var wire 1 f y.S3~regout $end
$var wire 1 g y.S4~feeder_combout $end
$var wire 1 h y.S4~regout $end
$var wire 1 i y~11_combout $end
$var wire 1 j y.S5~regout $end
$var wire 1 k min_reg|Q[4]~1_combout $end
$var wire 1 l shift_reg|Q[1]~8_combout $end
$var wire 1 m LessThan1~1_cout $end
$var wire 1 n LessThan1~3_cout $end
$var wire 1 o LessThan1~5_cout $end
$var wire 1 p LessThan1~7_cout $end
$var wire 1 q LessThan1~9_cout $end
$var wire 1 r LessThan1~11_cout $end
$var wire 1 s LessThan1~13_cout $end
$var wire 1 t LessThan1~14_combout $end
$var wire 1 u Add2~2_combout $end
$var wire 1 v max_reg|Q~4_combout $end
$var wire 1 w shift_reg|Q[0]~6_combout $end
$var wire 1 x Selector2~2_combout $end
$var wire 1 y y.S7~regout $end
$var wire 1 z Found~0_combout $end
$var wire 1 { max_reg|Q [4] $end
$var wire 1 | max_reg|Q [3] $end
$var wire 1 } max_reg|Q [2] $end
$var wire 1 ~ max_reg|Q [1] $end
$var wire 1 !! max_reg|Q [0] $end
$var wire 1 "! min_reg|Q [4] $end
$var wire 1 #! min_reg|Q [3] $end
$var wire 1 $! min_reg|Q [2] $end
$var wire 1 %! min_reg|Q [1] $end
$var wire 1 &! min_reg|Q [0] $end
$var wire 1 '! shift_reg|Q [4] $end
$var wire 1 (! shift_reg|Q [3] $end
$var wire 1 )! shift_reg|Q [2] $end
$var wire 1 *! shift_reg|Q [1] $end
$var wire 1 +! shift_reg|Q [0] $end
$var wire 1 ,! mem_blk|altsyncram_component|auto_generated|q_a [7] $end
$var wire 1 -! mem_blk|altsyncram_component|auto_generated|q_a [6] $end
$var wire 1 .! mem_blk|altsyncram_component|auto_generated|q_a [5] $end
$var wire 1 /! mem_blk|altsyncram_component|auto_generated|q_a [4] $end
$var wire 1 0! mem_blk|altsyncram_component|auto_generated|q_a [3] $end
$var wire 1 1! mem_blk|altsyncram_component|auto_generated|q_a [2] $end
$var wire 1 2! mem_blk|altsyncram_component|auto_generated|q_a [1] $end
$var wire 1 3! mem_blk|altsyncram_component|auto_generated|q_a [0] $end
$var wire 1 4! Data~combout [7] $end
$var wire 1 5! Data~combout [6] $end
$var wire 1 6! Data~combout [5] $end
$var wire 1 7! Data~combout [4] $end
$var wire 1 8! Data~combout [3] $end
$var wire 1 9! Data~combout [2] $end
$var wire 1 :! Data~combout [1] $end
$var wire 1 ;! Data~combout [0] $end
$var wire 1 <! mem_blk|altsyncram_component|auto_generated|ram_block1a0_PORTADATAOUT_bus [7] $end
$var wire 1 =! mem_blk|altsyncram_component|auto_generated|ram_block1a0_PORTADATAOUT_bus [6] $end
$var wire 1 >! mem_blk|altsyncram_component|auto_generated|ram_block1a0_PORTADATAOUT_bus [5] $end
$var wire 1 ?! mem_blk|altsyncram_component|auto_generated|ram_block1a0_PORTADATAOUT_bus [4] $end
$var wire 1 @! mem_blk|altsyncram_component|auto_generated|ram_block1a0_PORTADATAOUT_bus [3] $end
$var wire 1 A! mem_blk|altsyncram_component|auto_generated|ram_block1a0_PORTADATAOUT_bus [2] $end
$var wire 1 B! mem_blk|altsyncram_component|auto_generated|ram_block1a0_PORTADATAOUT_bus [1] $end
$var wire 1 C! mem_blk|altsyncram_component|auto_generated|ram_block1a0_PORTADATAOUT_bus [0] $end
$upscope $end
$upscope $end
$enddefinitions $end
#0
$dumpvars
1!
b0 "
0#
0$
0)
0(
0'
0&
0%
0*
0+
x,
0-
1.
x/
10
11
12
03
04
05
06
07
18
19
0:
0;
0<
0=
0>
0?
0@
1A
1B
0C
0D
1E
0F
1G
0H
0I
0J
1K
0L
1M
0N
0O
1P
1Q
0R
0S
1T
0U
0V
0W
0X
0Y
0Z
0[
1\
0]
0^
1_
0`
1a
0b
1c
0d
0e
0f
0g
0h
0i
0j
1k
0l
0m
1n
0o
1p
0q
1r
0s
0t
1u
0v
0w
0x
0y
1z
0!!
0~
0}
0|
0{
0&!
0%!
0$!
0#!
0"!
0+!
0*!
0)!
0(!
z'!
03!
02!
01!
00!
0/!
0.!
0-!
0,!
0;!
0:!
09!
08!
07!
06!
05!
04!
0C!
0B!
0A!
0@!
0?!
0>!
0=!
0<!
$end
#1000
0!
08
09
0,
#2000
1!
18
19
1,
#2901
1#
1:
1>
0,
1v
1X
1U
1S
1H
#3000
0!
08
09
1,
#4000
1!
18
19
0,
1~
1|
1}
1{
1!!
1C!
13!
1w
0T
1O
1l
1]
1m
0n
1o
0p
1q
0r
1s
1t
0Q
0E
0B
0u
#5000
0!
08
09
1,
#6000
1$
1!
1<
18
19
0,
1W
1=
1Z
#7000
0!
08
09
1,
#8000
1!
18
19
0,
1[
1?
0v
0k
0X
0W
0U
0S
0K
15
0Z
#9000
0!
08
09
1,
#10000
1!
18
19
0,
1+!
1*!
1f
1(!
1)!
0[
1@
0G
1u
1g
1E
1B
1)
1(
1&
1'
0A
0u
0H
05
1v
14
1X
1F
1U
1C
1D
0B
0v
04
0P
0E
0U
0C
1Q
0X
0F
1S
1R
#11000
0!
08
09
1,
#12000
1!
18
19
0,
1h
0f
1I
0g
#13000
0!
08
09
1,
#14000
1!
18
19
0,
0h
1J
1B!
1A!
1@!
1?!
12!
11!
10!
1/!
0I
1W
1K
1Z
#15000
0!
08
09
1,
#16000
1!
18
19
0,
0~
1[
0|
0}
0!!
0J
0w
0O
0l
0W
0K
0Z
#17000
0!
08
09
1,
#18000
1!
18
19
0,
0+!
0*!
1f
0)!
0[
0@
1G
1A
1u
1g
0D
1B
0)
0(
0'
0u
1H
15
0B
1v
14
1P
1E
1U
1C
0v
04
0U
0C
0Q
1X
1F
0S
0R
#19000
0!
08
09
1,
#20000
1!
18
19
0,
1h
0f
1I
0g
#21000
0!
08
09
1,
#22000
1!
18
19
0,
0h
1J
0B!
0A!
0@!
02!
01!
00!
0I
1W
1K
1Z
#23000
0!
08
09
1,
#24000
1!
18
19
0,
1[
1|
0{
1!!
0J
1O
0]
0W
0K
0Z
#25000
0!
08
09
1,
#26000
1!
18
19
0,
1f
0(!
1)!
0[
1g
0E
1B
0&
1'
0X
0F
1U
1C
#27000
0!
08
09
1,
#28000
1!
18
19
0,
1h
0f
1I
0g
#29000
0!
08
09
1,
#30000
1!
18
19
0,
0h
1J
1@!
0?!
10!
0/!
0I
1W
1K
1Z
#31000
0!
08
09
1,
#32000
1!
18
19
0,
1[
0|
1}
0J
1T
0O
1l
0W
0K
0Z
#33000
0!
08
09
1,
#34000
1!
18
19
0,
1*!
1f
0)!
0[
1u
1g
0B
1(
0'
1v
14
0U
0C
#35000
0!
08
09
1,
#36000
1!
18
19
0,
1h
0f
1I
0g
#37000
0!
08
09
1,
#38000
1!
18
19
0,
0h
1J
1A!
0@!
11!
00!
0I
1W
1K
1Z
#39000
0!
08
09
1,
#40000
1!
18
19
0,
1~
1[
0}
0J
1w
0l
0W
0K
0Z
#41000
0!
08
09
1,
#42000
1!
18
19
0,
1+!
0*!
1f
0[
1@
0G
0u
1g
1)
0(
1u
0H
05
0v
04
1v
14
#43000
0!
08
09
1,
#44000
1!
18
19
0,
1h
0f
1I
0g
#45000
0!
08
09
1,
#46000
1!
18
19
0,
0h
1J
1B!
0A!
12!
01!
0I
1W
1K
1Z
#47000
0!
08
09
1,
#48000
1!
18
19
0,
1[
0!!
0J
0W
0K
0Z
#49000
0!
08
09
1,
#50000
1!
18
19
0,
1f
0[
1g
#51000
0!
08
09
1,
#52000
1!
18
19
0,
1h
0f
1I
0g
#53000
0!
08
09
1,
#54000
1!
18
19
0,
0h
1J
0I
1W
1K
1Z
#55000
0!
08
09
1,
#56000
1!
18
19
0,
1[
0J
0W
0K
0Z
#57000
0!
08
09
1,
#58000
1!
18
19
0,
1f
0[
1g
#59000
0!
08
09
1,
#60000
1!
18
19
0,
1h
0f
1I
0g
#61000
0!
08
09
1,
#62000
1!
18
19
0,
0h
1J
0I
1W
1K
1Z
#63000
0!
08
09
1,
#64000
1!
18
19
0,
1[
0J
0W
0K
0Z
#65000
0!
08
09
1,
#66000
1!
18
19
0,
1f
0[
1g
#67000
0!
08
09
1,
#68000
1!
18
19
0,
1h
0f
1I
0g
#69000
0!
08
09
1,
#70000
1!
18
19
0,
0h
1J
0I
1W
1K
1Z
#71000
0!
08
09
1,
#72000
1!
18
19
0,
1[
0J
0W
0K
0Z
#73000
0!
08
09
1,
#74000
1!
18
19
0,
1f
0[
1g
#75000
0!
08
09
1,
#76000
1!
18
19
0,
1h
0f
1I
0g
#77000
0!
08
09
1,
#78000
1!
18
19
0,
0h
1J
0I
1W
1K
1Z
#79000
0!
08
09
1,
#80000
1!
18
19
0,
1[
0J
0W
0K
0Z
#81000
0!
08
09
1,
#82000
1!
18
19
0,
1f
0[
1g
#83000
0!
08
09
1,
#84000
1!
18
19
0,
1h
0f
1I
0g
#85000
0!
08
09
1,
#86000
1!
18
19
0,
0h
1J
0I
1W
1K
1Z
#87000
0!
08
09
1,
#88000
1!
18
19
0,
1[
0J
0W
0K
0Z
#89000
0!
08
09
1,
#90000
1!
18
19
0,
1f
0[
1g
#91000
0!
08
09
1,
#92000
1!
18
19
0,
1h
0f
1I
0g
#93000
0!
08
09
1,
#94000
1!
18
19
0,
0h
1J
0I
1W
1K
1Z
#95000
0!
08
09
1,
#96000
0$
1!
0<
18
19
0,
1[
0J
0W
0K
0Z
#97000
0!
08
09
1,
#98000
1!
18
19
0,
1f
0[
1g
#99000
0!
08
09
1,
#100000
b1 "
1!
1;!
18
19
0,
0m
1h
0f
1I
0g
#101000
0!
08
09
1,
#102000
1!
18
19
0,
0h
1J
0I
1W
1K
1Z
#103000
0!
08
09
1,
#104000
1!
18
19
0,
1[
0J
0W
0K
0Z
#105000
0!
08
09
1,
#106000
1$
1!
1<
18
19
0,
1f
0[
1g
#107000
0!
08
09
1,
#108000
1!
18
19
0,
1h
0f
1I
0g
#109000
0!
08
09
1,
#110000
1!
18
19
0,
0h
1J
0I
1W
1K
1Z
#111000
0!
08
09
1,
#112000
1!
18
19
0,
1[
0J
0W
0K
0Z
#113000
0!
08
09
1,
#114000
1!
18
19
0,
1f
0[
1g
#115000
0!
08
09
1,
#116000
1!
18
19
0,
1h
0f
1I
0g
#117000
0!
08
09
1,
#118000
1!
18
19
0,
0h
1J
0I
1W
1K
1Z
#119000
0!
08
09
1,
#120000
1!
18
19
0,
1[
0J
0W
0K
0Z
#121000
0!
08
09
1,
#122000
1!
18
19
0,
1f
0[
1g
#123000
0!
08
09
1,
#124000
1!
18
19
0,
1h
0f
1I
0g
#125000
0!
08
09
1,
#126000
1!
18
19
0,
0h
1J
0I
1W
1K
1Z
#127000
0!
08
09
1,
#128000
1!
18
19
0,
1[
0J
0W
0K
0Z
#129000
0!
08
09
1,
#130000
1!
18
19
0,
1f
0[
1g
#131000
0!
08
09
1,
#132000
1!
18
19
0,
1h
0f
1I
0g
#133000
0!
08
09
1,
#134000
1!
18
19
0,
0h
1J
0I
1W
1K
1Z
#135000
0!
08
09
1,
#136000
1!
18
19
0,
1[
0J
0W
0K
0Z
#137000
0!
08
09
1,
#138000
1!
18
19
0,
1f
0[
1g
#139000
0!
08
09
1,
#140000
1!
18
19
0,
1h
0f
1I
0g
#141000
0!
08
09
1,
#142000
1!
18
19
0,
0h
1J
0I
1W
1K
1Z
#143000
0!
08
09
1,
#144000
1!
18
19
0,
1[
0J
0W
0K
0Z
#145000
0!
08
09
1,
#146000
1!
18
19
0,
1f
0[
1g
#147000
0!
08
09
1,
#148000
1!
18
19
0,
1h
0f
1I
0g
#149000
0!
08
09
1,
#150000
1!
18
19
0,
0h
1J
0I
1W
1K
1Z
#151000
0!
08
09
1,
#152000
1!
18
19
0,
1[
0J
0W
0K
0Z
#153000
0!
08
09
1,
#154000
1!
18
19
0,
1f
0[
1g
#155000
0!
08
09
1,
#156000
1!
18
19
0,
1h
0f
1I
0g
#157000
0!
08
09
1,
#158000
1!
18
19
0,
0h
1J
0I
1W
1K
1Z
#159000
0!
08
09
1,
#160000
1!
18
19
0,
1[
0J
0W
0K
0Z
#161000
0!
08
09
1,
#162000
1!
18
19
0,
1f
0[
1g
#163000
0!
08
09
1,
#164000
1!
18
19
0,
1h
0f
1I
0g
#165000
0!
08
09
1,
#166000
1!
18
19
0,
0h
1J
0I
1W
1K
1Z
#167000
0!
08
09
1,
#168000
1!
18
19
0,
1[
0J
0W
0K
0Z
#169000
0!
08
09
1,
#170000
1!
18
19
0,
1f
0[
1g
#171000
0!
08
09
1,
#172000
1!
18
19
0,
1h
0f
1I
0g
#173000
0!
08
09
1,
#174000
1!
18
19
0,
0h
1J
0I
1W
1K
1Z
#175000
0!
08
09
1,
#176000
1!
18
19
0,
1[
0J
0W
0K
0Z
#177000
0!
08
09
1,
#178000
1!
18
19
0,
1f
0[
1g
#179000
0!
08
09
1,
#180000
1!
18
19
0,
1h
0f
1I
0g
#181000
0!
08
09
1,
#182000
1!
18
19
0,
0h
1J
0I
1W
1K
1Z
#183000
0!
08
09
1,
#184000
1!
18
19
0,
1[
0J
0W
0K
0Z
#185000
0!
08
09
1,
#186000
1!
18
19
0,
1f
0[
1g
#187000
0!
08
09
1,
#188000
1!
18
19
0,
1h
0f
1I
0g
#189000
0!
08
09
1,
#190000
1!
18
19
0,
0h
1J
0I
1W
1K
1Z
#191000
0!
08
09
1,
#192000
1!
18
19
0,
1[
0J
0W
0K
0Z
#193000
0!
08
09
1,
#194000
1!
18
19
0,
1f
0[
1g
#195000
0!
08
09
1,
#196000
0$
1!
0<
18
19
0,
1h
0f
1I
0g
#197000
0!
08
09
1,
#198000
1!
18
19
0,
0h
1J
0I
1W
1K
1Z
#199000
0!
08
09
1,
#200000
b11 "
b10 "
1!
0;!
1:!
18
19
0,
1m
1n
0n
0o
1o
1p
0p
0q
1q
1r
0r
0s
1s
0t
1t
1Q
1E
1B
0A
0u
0Q
0E
1A
1u
1S
1R
1X
1F
1U
1C
0v
04
0S
0R
0X
0F
0B
1v
14
0U
0C
1[
0J
0W
0K
0Z
#201000
0!
08
09
1,
#202000
1!
18
19
0,
1f
0[
1g
#203000
0!
08
09
1,
#204000
1!
18
19
0,
1h
0f
1I
0g
#205000
0!
08
09
1,
#206000
1$
1!
1<
18
19
0,
0h
1J
0I
1W
1K
1Z
#207000
0!
08
09
1,
#208000
1!
18
19
0,
1[
0J
0W
0K
0Z
#209000
0!
08
09
1,
#210000
1!
18
19
0,
1f
0[
1g
#211000
0!
08
09
1,
#212000
1!
18
19
0,
1h
0f
1I
0g
#213000
0!
08
09
1,
#214000
1!
18
19
0,
0h
1J
0I
1W
1K
1Z
#215000
0!
08
09
1,
#216000
1!
18
19
0,
1[
0J
0W
0K
0Z
#217000
0!
08
09
1,
#218000
1!
18
19
0,
1f
0[
1g
#219000
0!
08
09
1,
#220000
1!
18
19
0,
1h
0f
1I
0g
#221000
0!
08
09
1,
#222000
1!
18
19
0,
0h
1J
0I
1W
1K
1Z
#223000
0!
08
09
1,
#224000
1!
18
19
0,
1[
0J
0W
0K
0Z
#225000
0!
08
09
1,
#226000
1!
18
19
0,
1f
0[
1g
#227000
0!
08
09
1,
#228000
1!
18
19
0,
1h
0f
1I
0g
#229000
0!
08
09
1,
#230000
1!
18
19
0,
0h
1J
0I
1W
1K
1Z
#231000
0!
08
09
1,
#232000
1!
18
19
0,
1[
0J
0W
0K
0Z
#233000
0!
08
09
1,
#234000
1!
18
19
0,
1f
0[
1g
#235000
0!
08
09
1,
#236000
1!
18
19
0,
1h
0f
1I
0g
#237000
0!
08
09
1,
#238000
1!
18
19
0,
0h
1J
0I
1W
1K
1Z
#239000
0!
08
09
1,
#240000
1!
18
19
0,
1[
0J
0W
0K
0Z
#241000
0!
08
09
1,
#242000
1!
18
19
0,
1f
0[
1g
#243000
0!
08
09
1,
#244000
1!
18
19
0,
1h
0f
1I
0g
#245000
0!
08
09
1,
#246000
1!
18
19
0,
0h
1J
0I
1W
1K
1Z
#247000
0!
08
09
1,
#248000
1!
18
19
0,
1[
0J
0W
0K
0Z
#249000
0!
08
09
1,
#250000
1!
18
19
0,
1f
0[
1g
#251000
0!
08
09
1,
#252000
1!
18
19
0,
1h
0f
1I
0g
#253000
0!
08
09
1,
#254000
1!
18
19
0,
0h
1J
0I
1W
1K
1Z
#255000
0!
08
09
1,
#256000
1!
18
19
0,
1[
0J
0W
0K
0Z
#257000
0!
08
09
1,
#258000
1!
18
19
0,
1f
0[
1g
#259000
0!
08
09
1,
#260000
1!
18
19
0,
1h
0f
1I
0g
#261000
0!
08
09
1,
#262000
1!
18
19
0,
0h
1J
0I
1W
1K
1Z
#263000
0!
08
09
1,
#264000
1!
18
19
0,
1[
0J
0W
0K
0Z
#265000
0!
08
09
1,
#266000
1!
18
19
0,
1f
0[
1g
#267000
0!
08
09
1,
#268000
1!
18
19
0,
1h
0f
1I
0g
#269000
0!
08
09
1,
#270000
1!
18
19
0,
0h
1J
0I
1W
1K
1Z
#271000
0!
08
09
1,
#272000
1!
18
19
0,
1[
0J
0W
0K
0Z
#273000
0!
08
09
1,
#274000
1!
18
19
0,
1f
0[
1g
#275000
0!
08
09
1,
#276000
1!
18
19
0,
1h
0f
1I
0g
#277000
0!
08
09
1,
#278000
1!
18
19
0,
0h
1J
0I
1W
1K
1Z
#279000
0!
08
09
1,
#280000
1!
18
19
0,
1[
0J
0W
0K
0Z
#281000
0!
08
09
1,
#282000
1!
18
19
0,
1f
0[
1g
#283000
0!
08
09
1,
#284000
1!
18
19
0,
1h
0f
1I
0g
#285000
0!
08
09
1,
#286000
1!
18
19
0,
0h
1J
0I
1W
1K
1Z
#287000
0!
08
09
1,
#288000
1!
18
19
0,
1[
0J
0W
0K
0Z
#289000
0!
08
09
1,
#290000
1!
18
19
0,
1f
0[
1g
#291000
0!
08
09
1,
#292000
1!
18
19
0,
1h
0f
1I
0g
#293000
0!
08
09
1,
#294000
1!
18
19
0,
0h
1J
0I
1W
1K
1Z
#295000
0!
08
09
1,
#296000
0$
1!
0<
18
19
0,
1[
0J
0W
0K
0Z
#297000
0!
08
09
1,
#298000
1!
18
19
0,
1f
0[
1g
#299000
0!
08
09
1,
#300000
b11 "
1!
1;!
18
19
0,
0m
1n
0o
1p
0q
1r
0s
0t
1Q
1E
1B
0A
0u
1S
1R
1X
1F
1U
1C
1D
0B
0v
04
0P
0E
0U
0C
0Q
0X
0F
0S
0R
1h
0f
17
0g
1x
#301000
0!
08
09
1,
#302000
1!
18
19
0,
1y
0h
0z
0=
07
1*
0x
1+
#303000
0!
08
09
1,
#304000
1!
18
19
0,
0y
0?
1z
1v
1k
1X
1U
1S
1K
1H
0*
0+
#305000
0!
08
09
1,
#306000
1$
1!
1<
18
19
0,
1W
1=
1Z
1|
1}
1{
1!!
0T
1O
1l
1]
#307000
0!
08
09
1,
#308000
1!
18
19
0,
1[
1?
0v
0k
0X
0W
0U
0S
0K
0H
0Z
#309000
0!
08
09
1,
#310000
1!
18
19
0,
1*!
1f
1(!
1)!
0[
1u
1g
1E
1B
1(
1&
1'
1v
14
1X
1F
1U
1C
#311000
0!
08
09
1,
#312000
1!
18
19
0,
1h
0f
17
0g
1x
#313000
0!
08
09
1,
#314000
1!
18
19
0,
1y
0h
1A!
1@!
1?!
11!
10!
1/!
0z
16
07
1o
0p
1q
1*
17
0x
0r
1+
1x
1s
1t
1Q
0E
0B
0u
1S
1R
0X
0F
0U
0C
0v
04
#315000
0!
08
09
1,
#316000
1!
18
19
0,
#317000
0!
08
09
1,
#318000
1!
18
19
0,
#319000
0!
08
09
1,
#320000
1!
18
19
0,
#321000
0!
08
09
1,
#322000
1!
18
19
0,
#323000
0!
08
09
1,
#324000
1!
18
19
0,
#325000
0!
08
09
1,
#326000
1!
18
19
0,
#327000
0!
08
09
1,
#328000
1!
18
19
0,
#329000
0!
08
09
1,
#330000
1!
18
19
0,
#331000
0!
08
09
1,
#332000
1!
18
19
0,
#333000
0!
08
09
1,
#334000
1!
18
19
0,
#335000
0!
08
09
1,
#336000
1!
18
19
0,
#337000
0!
08
09
1,
#338000
1!
18
19
0,
#339000
0!
08
09
1,
#340000
1!
18
19
0,
#341000
0!
08
09
1,
#342000
1!
18
19
0,
#343000
0!
08
09
1,
#344000
1!
18
19
0,
#345000
0!
08
09
1,
#346000
1!
18
19
0,
#347000
0!
08
09
1,
#348000
1!
18
19
0,
#349000
0!
08
09
1,
#350000
1!
18
19
0,
#351000
0!
08
09
1,
#352000
1!
18
19
0,
#353000
0!
08
09
1,
#354000
1!
18
19
0,
#355000
0!
08
09
1,
#356000
1!
18
19
0,
#357000
0!
08
09
1,
#358000
1!
18
19
0,
#359000
0!
08
09
1,
#360000
1!
18
19
0,
#361000
0!
08
09
1,
#362000
1!
18
19
0,
#363000
0!
08
09
1,
#364000
1!
18
19
0,
#365000
0!
08
09
1,
#366000
1!
18
19
0,
#367000
0!
08
09
1,
#368000
1!
18
19
0,
#369000
0!
08
09
1,
#370000
1!
18
19
0,
#371000
0!
08
09
1,
#372000
1!
18
19
0,
#373000
0!
08
09
1,
#374000
1!
18
19
0,
#375000
0!
08
09
1,
#376000
1!
18
19
0,
#377000
0!
08
09
1,
#378000
1!
18
19
0,
#379000
0!
08
09
1,
#380000
1!
18
19
0,
#381000
0!
08
09
1,
#382000
1!
18
19
0,
#383000
0!
08
09
1,
#384000
1!
18
19
0,
#385000
0!
08
09
1,
#386000
1!
18
19
0,
#387000
0!
08
09
1,
#388000
1!
18
19
0,
#389000
0!
08
09
1,
#390000
1!
18
19
0,
#391000
0!
08
09
1,
#392000
1!
18
19
0,
#393000
0!
08
09
1,
#394000
1!
18
19
0,
#395000
0!
08
09
1,
#396000
0$
1!
0<
18
19
0,
0=
06
07
0x
#397000
0!
08
09
1,
#398000
1!
18
19
0,
0y
0?
1z
1v
1k
1X
1U
0R
1K
1H
0*
0+
#399000
0!
08
09
1,
#400000
b111 "
b101 "
b100 "
1!
0;!
0:!
19!
18
19
0,
1m
0n
0o
1o
#401000
0!
08
09
1,
#402000
1!
18
19
0,
#403000
0!
08
09
1,
#404000
1!
18
19
0,
#405000
0!
08
09
1,
#406000
1$
1!
1<
18
19
0,
1W
1=
1Z
#407000
0!
08
09
1,
#408000
1!
18
19
0,
1[
1?
0v
0k
0X
0W
0U
1R
0K
0H
0Z
#409000
0!
08
09
1,
#410000
1!
18
19
0,
1f
0[
1g
#411000
0!
08
09
1,
#412000
1!
18
19
0,
1h
0f
1I
0g
#413000
0!
08
09
1,
#414000
1!
18
19
0,
0h
1J
0I
1W
1K
1Z
#415000
0!
08
09
1,
#416000
1!
18
19
0,
0~
1[
0|
0}
0!!
0J
0w
0O
0l
0W
0K
0Z
#417000
0!
08
09
1,
#418000
1!
18
19
0,
0+!
0*!
1f
0)!
0[
0@
1G
1A
1u
1g
0D
1B
0)
0(
0'
0u
1H
15
0B
1v
14
1P
1E
1U
1C
0v
04
0U
0C
0Q
1X
1F
0S
0R
#419000
0!
08
09
1,
#420000
1!
18
19
0,
1h
0f
1I
0g
#421000
0!
08
09
1,
#422000
1!
18
19
0,
0h
1J
0B!
0A!
0@!
02!
01!
00!
0I
1W
1K
0o
1`
1Z
1p
0a
#423000
0!
08
09
1,
#424000
1!
18
19
0,
1[
1|
0{
1!!
0J
1O
0]
0W
0K
0Z
#425000
0!
08
09
1,
#426000
1!
18
19
0,
1f
0(!
1)!
0[
1g
0E
1B
0&
1'
0X
0F
1U
1C
#427000
0!
08
09
1,
#428000
1!
18
19
0,
1h
0f
1I
0g
#429000
0!
08
09
1,
#430000
1!
18
19
0,
0h
1J
1@!
0?!
10!
0/!
0I
1W
1K
0p
1a
0q
1b
1Z
1q
0b
1r
0c
0r
1c
0s
1d
1s
0d
0t
1e
1t
0e
1Q
1E
1D
0B
1u
0Q
0D
1B
0u
1S
1R
1X
1F
0U
0C
1v
14
0S
0R
0E
1U
1C
0v
04
0X
0F
#431000
0!
08
09
1,
#432000
1!
18
19
0,
1[
0|
1}
0J
1T
0O
1l
0W
0K
0Z
#433000
0!
08
09
1,
#434000
1!
18
19
0,
1*!
1f
0)!
0[
1u
1g
0B
1(
0'
1v
14
0U
0C
#435000
0!
08
09
1,
#436000
1!
18
19
0,
1h
0f
1I
0g
#437000
0!
08
09
1,
#438000
1!
18
19
0,
0h
1J
1A!
0@!
11!
00!
0I
1W
1K
1o
0`
1p
0a
1Z
0p
1a
0q
1b
1q
0b
1r
0c
0r
1c
0s
1d
1s
0d
0t
1e
1t
0e
1Q
1E
1B
0A
0u
0Q
0E
1A
1u
1S
1R
1X
1F
1U
1C
0v
04
0S
0R
0X
0F
0B
1v
14
0U
0C
#439000
0!
08
09
1,
#440000
1!
18
19
0,
1~
1[
0}
0J
1w
0l
0W
0K
0Z
#441000
0!
08
09
1,
#442000
1!
18
19
0,
1+!
0*!
1f
0[
1@
0G
0u
1g
1)
0(
1u
0H
05
0v
04
1v
14
#443000
0!
08
09
1,
#444000
1!
18
19
0,
1h
0f
1I
0g
#445000
0!
08
09
1,
#446000
1!
18
19
0,
0h
1J
1B!
0A!
12!
01!
0I
1W
1K
0o
1`
1Z
1p
0a
0q
1b
1r
0c
0s
1d
0t
1e
1Q
1E
1B
0A
0u
1S
1R
1X
1F
1U
1C
1D
0B
0v
04
0P
0E
0U
0C
0Q
0X
0F
0S
0R
#447000
0!
08
09
1,
#448000
1!
18
19
0,
0~
1[
0!!
0J
0w
0W
0K
0Z
#449000
0!
08
09
1,
#450000
1!
18
19
0,
0+!
1f
0[
0@
1G
1g
0)
1A
1u
1H
15
0D
1B
1v
14
1P
1E
1U
1C
1Q
1X
1F
1S
1R
#451000
0!
08
09
1,
#452000
1!
18
19
0,
1h
0f
1i
0g
#453000
0!
08
09
1,
#454000
1!
18
19
0,
1j
0h
0B!
02!
1k
1W
0i
1Z
#455000
0!
08
09
1,
#456000
1!
18
19
0,
1$!
0j
1[
1"!
1#!
1&!
1%!
1V
1l
0k
0W
1]
1Y
0T
1O
13
1w
0Z
0V
#457000
0!
08
09
1,
#458000
1!
18
19
0,
1+!
1*!
1f
1(!
1)!
0[
1@
0G
0A
0u
1g
0P
0E
1D
0B
1)
1(
1&
1'
1u
0H
05
1B
0v
04
0Q
0X
0F
1E
0U
0C
1v
14
1U
1C
0S
0R
1X
1F
#459000
0!
08
09
1,
#460000
1!
18
19
0,
1h
0f
1i
0g
#461000
0!
08
09
1,
#462000
1!
18
19
0,
1j
0h
1B!
1A!
1@!
1?!
12!
11!
10!
1/!
1k
1W
0i
1o
0`
0p
1a
1q
0b
1x
0r
1c
1s
0d
1t
0e
1Q
0E
0B
0u
1S
1R
0X
0F
0U
0C
0v
04
#463000
0!
08
09
1,
