lab1/part3/L1P3_restored/simulation/qsim/L1P3.msim.vcd
$comment
	File created using the following command:
		vcd file L1P3.msim.vcd -direction
$end
$date
	Tue Sep 22 00:45:53 2020
$end
$version
	ModelSim Version 10.1d
$end
$timescale
	1ps
$end
$scope module L1P3_vlg_vec_tst $end
$var reg 10 ! SW [9:0] $end
$var wire 1 " LEDG [9] $end
$var wire 1 # LEDG [8] $end
$var wire 1 $ LEDG [7] $end
$var wire 1 % LEDG [6] $end
$var wire 1 & LEDG [5] $end
$var wire 1 ' LEDG [4] $end
$var wire 1 ( LEDG [3] $end
$var wire 1 ) LEDG [2] $end
$var wire 1 * LEDG [1] $end
$var wire 1 + LEDG [0] $end
$var wire 1 , sampler $end
$scope module i1 $end
$var wire 1 - gnd $end
$var wire 1 . vcc $end
$var wire 1 / unknown $end
$var tri1 1 0 devclrn $end
$var tri1 1 1 devpor $end
$var tri1 1 2 devoe $end
$var wire 1 3 SW[6]~input_o $end
$var wire 1 4 SW[7]~input_o $end
$var wire 1 5 LEDG[0]~output_o $end
$var wire 1 6 LEDG[1]~output_o $end
$var wire 1 7 LEDG[2]~output_o $end
$var wire 1 8 LEDG[3]~output_o $end
$var wire 1 9 LEDG[4]~output_o $end
$var wire 1 : LEDG[5]~output_o $end
$var wire 1 ; LEDG[6]~output_o $end
$var wire 1 < LEDG[7]~output_o $end
$var wire 1 = LEDG[8]~output_o $end
$var wire 1 > LEDG[9]~output_o $end
$var wire 1 ? SW[9]~input_o $end
$var wire 1 @ SW[0]~input_o $end
$var wire 1 A SW[2]~input_o $end
$var wire 1 B SW[4]~input_o $end
$var wire 1 C M~0_combout $end
$var wire 1 D M~1_combout $end
$var wire 1 E SW[1]~input_o $end
$var wire 1 F SW[5]~input_o $end
$var wire 1 G SW[3]~input_o $end
$var wire 1 H SW[8]~input_o $end
$var wire 1 I M~2_combout $end
$var wire 1 J M~3_combout $end
$upscope $end
$upscope $end
$enddefinitions $end
#0
$dumpvars
b0 !
0+
0*
0)
0(
0'
0&
0%
0$
0#
0"
x,
0-
1.
x/
10
11
12
03
04
05
06
07
08
09
0:
0;
0<
0=
0>
0?
0@
0A
0B
0C
0D
0E
0F
0G
0H
0I
0J
$end
#10000
b10000 !
1B
0,
1C
1D
15
1+
#20000
b110000 !
b100000 !
0B
1F
1,
0C
1I
0D
1J
05
16
0+
1*
#30000
b110000 !
1B
0,
1C
1D
15
1+
#40000
b100110000 !
1H
1,
0I
0C
0J
0D
06
05
0*
0+
#50000
b100110100 !
b100010100 !
b100000100 !
1A
0B
0F
0,
1C
1D
15
1+
#60000
b100001100 !
b100001000 !
0A
1G
1,
0C
1I
0D
1J
05
16
0+
1*
#70000
b100001100 !
1A
0,
1C
1D
15
1+
#80000
b1100001100 !
b1000001100 !
0H
1?
1,
0I
0C
0J
0D
06
05
0*
0+
#90000
b1000001101 !
b1000000101 !
b1000000001 !
1@
0A
0G
0,
1D
15
1+
#100000
b1000000011 !
b1000000010 !
0@
1E
1,
0D
1J
05
16
0+
1*
#110000
b1000000011 !
1@
0,
1D
15
1+
#120000
b1100000011 !
1H
1,
#130000
b1100100011 !
b1100100001 !
b1100100000 !
0@
0E
1F
0,
0D
0J
05
06
0+
0*
#140000
b1100110000 !
b1100010000 !
1B
0F
1,
#150000
b1100011000 !
b1100001000 !
1G
0B
0,
#160000
b1100001100 !
b1100000100 !
1A
0G
1,
#170000
b1100000110 !
b1100000010 !
1E
0A
0,
1J
16
1*
#180000
b1100000011 !
b1100000001 !
1@
0E
1,
1D
0J
15
06
1+
0*
#190000
b1100000000 !
0@
0,
0D
05
0+
