lab4/L4P4_restored/simulation/qsim/L4P4.msim.vcd
$comment
	File created using the following command:
		vcd file L4P4.msim.vcd -direction
$end
$date
	Sat Oct 10 01:24:26 2020
$end
$version
	ModelSim Version 10.1d
$end
$timescale
	1ps
$end
$scope module L4P4_vlg_vec_tst $end
$var reg 1 ! CLOCK_50 $end
$var reg 3 " KEY [0:2] $end
$var wire 1 # HEX0 [0] $end
$var wire 1 $ HEX0 [1] $end
$var wire 1 % HEX0 [2] $end
$var wire 1 & HEX0 [3] $end
$var wire 1 ' HEX0 [4] $end
$var wire 1 ( HEX0 [5] $end
$var wire 1 ) HEX0 [6] $end
$var wire 1 * HEX1 [0] $end
$var wire 1 + HEX1 [1] $end
$var wire 1 , HEX1 [2] $end
$var wire 1 - HEX1 [3] $end
$var wire 1 . HEX1 [4] $end
$var wire 1 / HEX1 [5] $end
$var wire 1 0 HEX1 [6] $end
$var wire 1 1 HEX2 [0] $end
$var wire 1 2 HEX2 [1] $end
$var wire 1 3 HEX2 [2] $end
$var wire 1 4 HEX2 [3] $end
$var wire 1 5 HEX2 [4] $end
$var wire 1 6 HEX2 [5] $end
$var wire 1 7 HEX2 [6] $end
$var wire 1 8 HEX3 [0] $end
$var wire 1 9 HEX3 [1] $end
$var wire 1 : HEX3 [2] $end
$var wire 1 ; HEX3 [3] $end
$var wire 1 < HEX3 [4] $end
$var wire 1 = HEX3 [5] $end
$var wire 1 > HEX3 [6] $end
$var wire 1 ? sampler $end
$scope module i1 $end
$var wire 1 @ gnd $end
$var wire 1 A vcc $end
$var wire 1 B unknown $end
$var tri1 1 C devclrn $end
$var tri1 1 D devpor $end
$var tri1 1 E devoe $end
$var wire 1 F count[1]~31_combout $end
$var wire 1 G count[1]~32 $end
$var wire 1 H count[2]~33_combout $end
$var wire 1 I count[2]~34 $end
$var wire 1 J count[3]~35_combout $end
$var wire 1 K count[3]~36 $end
$var wire 1 L count[4]~37_combout $end
$var wire 1 M count[4]~38 $end
$var wire 1 N count[5]~39_combout $end
$var wire 1 O count[5]~40 $end
$var wire 1 P count[6]~41_combout $end
$var wire 1 Q count[6]~42 $end
$var wire 1 R count[7]~43_combout $end
$var wire 1 S count[7]~44 $end
$var wire 1 T count[8]~45_combout $end
$var wire 1 U count[8]~46 $end
$var wire 1 V count[9]~47_combout $end
$var wire 1 W count[9]~48 $end
$var wire 1 X count[10]~49_combout $end
$var wire 1 Y count[10]~50 $end
$var wire 1 Z count[11]~51_combout $end
$var wire 1 [ count[11]~52 $end
$var wire 1 \ count[12]~53_combout $end
$var wire 1 ] count[12]~54 $end
$var wire 1 ^ count[13]~55_combout $end
$var wire 1 _ count[13]~56 $end
$var wire 1 ` count[14]~57_combout $end
$var wire 1 a count[14]~58 $end
$var wire 1 b count[15]~59_combout $end
$var wire 1 c count[15]~60 $end
$var wire 1 d count[16]~61_combout $end
$var wire 1 e count[16]~62 $end
$var wire 1 f count[17]~63_combout $end
$var wire 1 g count[17]~64 $end
$var wire 1 h count[18]~65_combout $end
$var wire 1 i count[18]~66 $end
$var wire 1 j count[19]~67_combout $end
$var wire 1 k count[19]~68 $end
$var wire 1 l count[20]~69_combout $end
$var wire 1 m count[20]~70 $end
$var wire 1 n count[21]~71_combout $end
$var wire 1 o count[21]~72 $end
$var wire 1 p count[22]~73_combout $end
$var wire 1 q count[22]~74 $end
$var wire 1 r count[23]~75_combout $end
$var wire 1 s count[23]~76 $end
$var wire 1 t count[24]~77_combout $end
$var wire 1 u count[24]~78 $end
$var wire 1 v count[25]~79_combout $end
$var wire 1 w count[25]~80 $end
$var wire 1 x count[26]~81_combout $end
$var wire 1 y count[26]~82 $end
$var wire 1 z count[27]~83_combout $end
$var wire 1 { count[27]~84 $end
$var wire 1 | count[28]~85_combout $end
$var wire 1 } count[28]~86 $end
$var wire 1 ~ count[29]~87_combout $end
$var wire 1 !! count[29]~88 $end
$var wire 1 "! count[30]~89_combout $end
$var wire 1 #! count[30]~90 $end
$var wire 1 $! count[31]~91_combout $end
$var wire 1 %! Equal0~0_combout $end
$var wire 1 &! Equal0~1_combout $end
$var wire 1 '! Equal0~2_combout $end
$var wire 1 (! Equal0~3_combout $end
$var wire 1 )! Equal0~4_combout $end
$var wire 1 *! Equal0~5_combout $end
$var wire 1 +! Equal0~6_combout $end
$var wire 1 ,! Equal0~7_combout $end
$var wire 1 -! Equal0~8_combout $end
$var wire 1 .! Equal0~9_combout $end
$var wire 1 /! Equal0~10_combout $end
$var wire 1 0! Clk~0_combout $end
$var wire 1 1! Equal0~11_combout $end
$var wire 1 2! count[0]~93_combout $end
$var wire 1 3! KEY[2]~input_o $end
$var wire 1 4! KEY[1]~input_o $end
$var wire 1 5! CLOCK_50~input_o $end
$var wire 1 6! Clk~0clkctrl_outclk $end
$var wire 1 7! count[0]~feeder_combout $end
$var wire 1 8! HEX0[6]~output_o $end
$var wire 1 9! HEX0[5]~output_o $end
$var wire 1 :! HEX0[4]~output_o $end
$var wire 1 ;! HEX0[3]~output_o $end
$var wire 1 <! HEX0[2]~output_o $end
$var wire 1 =! HEX0[1]~output_o $end
$var wire 1 >! HEX0[0]~output_o $end
$var wire 1 ?! HEX1[6]~output_o $end
$var wire 1 @! HEX1[5]~output_o $end
$var wire 1 A! HEX1[4]~output_o $end
$var wire 1 B! HEX1[3]~output_o $end
$var wire 1 C! HEX1[2]~output_o $end
$var wire 1 D! HEX1[1]~output_o $end
$var wire 1 E! HEX1[0]~output_o $end
$var wire 1 F! HEX2[6]~output_o $end
$var wire 1 G! HEX2[5]~output_o $end
$var wire 1 H! HEX2[4]~output_o $end
$var wire 1 I! HEX2[3]~output_o $end
$var wire 1 J! HEX2[2]~output_o $end
$var wire 1 K! HEX2[1]~output_o $end
$var wire 1 L! HEX2[0]~output_o $end
$var wire 1 M! HEX3[6]~output_o $end
$var wire 1 N! HEX3[5]~output_o $end
$var wire 1 O! HEX3[4]~output_o $end
$var wire 1 P! HEX3[3]~output_o $end
$var wire 1 Q! HEX3[2]~output_o $end
$var wire 1 R! HEX3[1]~output_o $end
$var wire 1 S! HEX3[0]~output_o $end
$var wire 1 T! counter|Q[0]~3_combout $end
$var wire 1 U! KEY[0]~input_o $end
$var wire 1 V! counter|Q~0_combout $end
$var wire 1 W! counter|Q[2]~1_combout $end
$var wire 1 X! counter|Q~2_combout $end
$var wire 1 Y! h0|Mux6~0_combout $end
$var wire 1 Z! h0|Mux5~0_combout $end
$var wire 1 [! h0|Mux4~0_combout $end
$var wire 1 \! h0|Mux3~0_combout $end
$var wire 1 ]! h0|Mux2~0_combout $end
$var wire 1 ^! h0|Mux1~0_combout $end
$var wire 1 _! h0|Mux0~0_combout $end
$var wire 1 `! count [31] $end
$var wire 1 a! count [30] $end
$var wire 1 b! count [29] $end
$var wire 1 c! count [28] $end
$var wire 1 d! count [27] $end
$var wire 1 e! count [26] $end
$var wire 1 f! count [25] $end
$var wire 1 g! count [24] $end
$var wire 1 h! count [23] $end
$var wire 1 i! count [22] $end
$var wire 1 j! count [21] $end
$var wire 1 k! count [20] $end
$var wire 1 l! count [19] $end
$var wire 1 m! count [18] $end
$var wire 1 n! count [17] $end
$var wire 1 o! count [16] $end
$var wire 1 p! count [15] $end
$var wire 1 q! count [14] $end
$var wire 1 r! count [13] $end
$var wire 1 s! count [12] $end
$var wire 1 t! count [11] $end
$var wire 1 u! count [10] $end
$var wire 1 v! count [9] $end
$var wire 1 w! count [8] $end
$var wire 1 x! count [7] $end
$var wire 1 y! count [6] $end
$var wire 1 z! count [5] $end
$var wire 1 {! count [4] $end
$var wire 1 |! count [3] $end
$var wire 1 }! count [2] $end
$var wire 1 ~! count [1] $end
$var wire 1 !" count [0] $end
$var wire 1 "" counter|Q [3] $end
$var wire 1 #" counter|Q [2] $end
$var wire 1 $" counter|Q [1] $end
$var wire 1 %" counter|Q [0] $end
$upscope $end
$upscope $end
$enddefinitions $end
#0
$dumpvars
0!
b0 "
1)
0(
0'
0&
0%
0$
0#
10
1/
1.
1-
1,
1+
1*
17
16
15
14
13
12
11
1>
1=
1<
1;
1:
19
18
x?
0@
1A
xB
1C
1D
1E
0F
0G
0H
1I
0J
0K
0L
1M
0N
0O
0P
1Q
0R
0S
0T
1U
0V
0W
0X
1Y
0Z
0[
0\
1]
0^
0_
0`
1a
0b
0c
0d
1e
0f
0g
0h
1i
0j
0k
0l
1m
0n
0o
0p
1q
0r
0s
0t
1u
0v
0w
0x
1y
0z
0{
0|
1}
0~
0!!
0"!
1#!
0$!
1%!
0&!
0'!
1(!
0)!
0*!
0+!
0,!
0-!
1.!
0/!
x0!
01!
12!
03!
04!
05!
x6!
17!
18!
09!
0:!
0;!
0<!
0=!
0>!
1?!
1@!
1A!
1B!
1C!
1D!
1E!
1F!
1G!
1H!
1I!
1J!
1K!
1L!
1M!
1N!
1O!
1P!
1Q!
1R!
1S!
1T!
0U!
0V!
0W!
0X!
0Y!
0Z!
0[!
0\!
0]!
0^!
0_!
0!"
0~!
0}!
0|!
0{!
0z!
0y!
0x!
0w!
0v!
0u!
0t!
0s!
0r!
0q!
0p!
0o!
0n!
0m!
0l!
0k!
0j!
0i!
0h!
0g!
0f!
0e!
0d!
0c!
0b!
0a!
0`!
0%"
0$"
0#"
0""
$end
#50000
1!
15!
0?
1!"
02!
1F
07!
#100000
0!
05!
1?
#150000
1!
15!
0?
0!"
1~!
12!
17!
#200000
0!
05!
1?
#250000
1!
15!
0?
1!"
02!
1G
0F
07!
1H
#300000
0!
05!
1?
#350000
1!
15!
0?
0!"
0~!
1}!
12!
0G
0%!
0I
0H
17!
1I
1H
1J
0J
#400000
0!
05!
1?
#450000
1!
15!
0?
1!"
02!
1F
07!
#500000
0!
05!
1?
#550000
1!
15!
0?
0!"
1~!
12!
17!
#600000
0!
05!
1?
#650000
1!
15!
0?
1!"
02!
1G
0F
07!
0I
0H
1J
#700000
0!
05!
1?
#750000
1!
15!
0?
0!"
0~!
1|!
0}!
12!
0G
1K
0J
1I
1H
17!
0H
1L
0K
1J
0L
#800000
0!
05!
1?
#850000
1!
15!
0?
1!"
02!
1F
07!
#900000
0!
05!
1?
#950000
1!
15!
0?
0!"
1~!
12!
17!
