lab3/L3P3/simulation/qsim/L3P3.msim.vcd
$comment
	File created using the following command:
		vcd file L3P3.msim.vcd -direction
$end
$date
	Tue Oct 06 20:42:54 2020
$end
$version
	ModelSim Version 10.1d
$end
$timescale
	1ps
$end
$scope module L3P3_vlg_vec_tst $end
$var reg 10 ! SW [9:0] $end
$var wire 1 " LEDG [9] $end
$var wire 1 # LEDG [8] $end
$var wire 1 $ LEDG [7] $end
$var wire 1 % LEDG [6] $end
$var wire 1 & LEDG [5] $end
$var wire 1 ' LEDG [4] $end
$var wire 1 ( LEDG [3] $end
$var wire 1 ) LEDG [2] $end
$var wire 1 * LEDG [1] $end
$var wire 1 + LEDG [0] $end
$var wire 1 , sampler $end
$scope module i1 $end
$var wire 1 - gnd $end
$var wire 1 . vcc $end
$var wire 1 / unknown $end
$var tri1 1 0 devclrn $end
$var tri1 1 1 devpor $end
$var tri1 1 2 devoe $end
$var wire 1 3 SW[2]~input_o $end
$var wire 1 4 SW[3]~input_o $end
$var wire 1 5 SW[4]~input_o $end
$var wire 1 6 SW[5]~input_o $end
$var wire 1 7 SW[6]~input_o $end
$var wire 1 8 SW[7]~input_o $end
$var wire 1 9 SW[8]~input_o $end
$var wire 1 : SW[9]~input_o $end
$var wire 1 ; LEDG[0]~output_o $end
$var wire 1 < LEDG[1]~output_o $end
$var wire 1 = LEDG[2]~output_o $end
$var wire 1 > LEDG[3]~output_o $end
$var wire 1 ? LEDG[4]~output_o $end
$var wire 1 @ LEDG[5]~output_o $end
$var wire 1 A LEDG[6]~output_o $end
$var wire 1 B LEDG[7]~output_o $end
$var wire 1 C LEDG[8]~output_o $end
$var wire 1 D LEDG[9]~output_o $end
$var wire 1 E SW[0]~input_o $end
$var wire 1 F SW[1]~input_o $end
$var wire 1 G d1|Qb~combout $end
$var wire 1 H d1|Qa~combout $end
$var wire 1 I Qm~combout $end
$var wire 1 J d2|Qb~combout $end
$var wire 1 K d2|Qa~combout $end
$var wire 1 L Qs~combout $end
$upscope $end
$upscope $end
$enddefinitions $end
#0
$dumpvars
bx00 !
x+
0*
0)
0(
0'
0&
0%
0$
0#
0"
x,
0-
1.
x/
10
11
12
x3
x4
x5
x6
x7
x8
x9
x:
x;
0<
0=
0>
0?
0@
0A
0B
0C
0D
0E
0F
1G
0H
0I
xJ
xK
xL
$end
#10000
bx10 !
1F
0,
1J
0K
0L
0;
0+
#10682
bx11 !
1E
1,
#14682
bx10 !
0E
0,
#20000
bx00 !
0F
1,
#21424
bx01 !
1E
0,
1H
0G
1I
1<
1*
#30000
bx11 !
1F
1,
1K
0J
1L
1;
1+
#36349
bx10 !
0E
0,
#40000
bx00 !
0F
1,
1G
0H
0I
0<
0*
#44943
bx01 !
1E
0,
1H
0G
1I
1<
1*
#50000
bx11 !
1F
1,
#60000
bx01 !
0F
0,
#61159
bx00 !
0E
1,
1G
0H
0I
0<
0*
#70000
bx10 !
1F
0,
1J
0K
0L
0;
0+
#70825
bx11 !
1E
1,
#80000
bx01 !
0F
0,
1H
0G
1I
1<
1*
#83215
bx00 !
0E
1,
1G
0H
0I
0<
0*
#90000
bx10 !
1F
0,
#95152
bx11 !
1E
1,
#100000
bx01 !
0F
0,
1H
0G
1I
1<
1*
#110000
bx11 !
1F
1,
1K
0J
1L
1;
1+
#120000
bx01 !
0F
0,
#120443
bx00 !
0E
1,
1G
0H
0I
0<
0*
#130000
bx10 !
1F
0,
1J
0K
0L
0;
0+
#132109
bx11 !
1E
1,
#140000
bx01 !
0F
0,
1H
0G
1I
1<
1*
#141337
bx00 !
0E
1,
1G
0H
0I
0<
0*
#144804
bx01 !
1E
0,
1H
0G
1I
1<
1*
#148003
bx00 !
0E
1,
1G
0H
0I
0<
0*
#150000
bx10 !
1F
0,
#151470
bx11 !
1E
1,
#154669
bx10 !
0E
0,
#158136
bx11 !
1E
1,
#160000
bx01 !
bx00 !
0E
0F
0,
#161039
bx01 !
1E
1,
1H
0G
1I
1<
1*
#165139
bx00 !
0E
0,
1G
0H
0I
0<
0*
#170000
bx10 !
1F
1,
#171039
bx11 !
1E
0,
#175139
bx10 !
0E
1,
#180000
bx00 !
0F
0,
#183355
bx01 !
1E
1,
1H
0G
1I
1<
1*
#189955
bx00 !
0E
0,
1G
0H
0I
0<
0*
#190000
bx10 !
1F
1,
