lab11/L11P2_restored2/simulation/qsim/L11P2.msim.vcd
$comment
	File created using the following command:
		vcd file L11P2.msim.vcd -direction
$end
$date
	Mon Nov 16 01:29:04 2020
$end
$version
	ModelSim Version 10.1d
$end
$timescale
	1ps
$end
$scope module L11P2_vlg_vec_tst $end
$var reg 1 ! Clock $end
$var reg 8 " Data [7:0] $end
$var reg 1 # Resetn $end
$var reg 1 $ s $end
$var wire 1 % Addr [4] $end
$var wire 1 & Addr [3] $end
$var wire 1 ' Addr [2] $end
$var wire 1 ( Addr [1] $end
$var wire 1 ) Addr [0] $end
$var wire 1 * Done $end
$var wire 1 + Found $end
$var wire 1 , sampler $end
$scope module i1 $end
$var wire 1 - gnd $end
$var wire 1 . vcc $end
$var wire 1 / unknown $end
$var tri1 1 0 devclrn $end
$var tri1 1 1 devpor $end
$var tri1 1 2 devoe $end
$var wire 1 3 Clock~combout $end
$var wire 1 4 Clock~clkctrl_outclk $end
$var wire 1 5 min_reg|Q[0]~7 $end
$var wire 1 6 min_reg|Q[1]~9 $end
$var wire 1 7 min_reg|Q[2]~11_combout $end
$var wire 1 8 s~combout $end
$var wire 1 9 Selector0~0_combout $end
$var wire 1 : Resetn~combout $end
$var wire 1 ; Resetn~clkctrl_outclk $end
$var wire 1 < y.S1~regout $end
$var wire 1 = min_reg|Q[4]~5_combout $end
$var wire 1 > ~GND~combout $end
$var wire 1 ? min_reg|Q[2]~12 $end
$var wire 1 @ min_reg|Q[3]~13_combout $end
$var wire 1 A min_reg|Q[0]~6_combout $end
$var wire 1 B shift_reg|Q[0]~6_cout $end
$var wire 1 C shift_reg|Q[0]~8 $end
$var wire 1 D shift_reg|Q[1]~10 $end
$var wire 1 E shift_reg|Q[2]~11_combout $end
$var wire 1 F max_reg|Q[0]~6 $end
$var wire 1 G max_reg|Q[1]~8 $end
$var wire 1 H max_reg|Q[2]~11 $end
$var wire 1 I max_reg|Q[3]~13 $end
$var wire 1 J max_reg|Q[4]~14_combout $end
$var wire 1 K max_reg|Q[4]~9_combout $end
$var wire 1 L shift_reg|Q[2]~12 $end
$var wire 1 M shift_reg|Q[3]~14 $end
$var wire 1 N shift_reg|Q[4]~15_combout $end
$var wire 1 O min_reg|Q[3]~14 $end
$var wire 1 P min_reg|Q[4]~15_combout $end
$var wire 1 Q LessThan0~0_combout $end
$var wire 1 R shift_reg|Q[3]~13_combout $end
$var wire 1 S LessThan1~1_cout $end
$var wire 1 T LessThan1~3_cout $end
$var wire 1 U LessThan1~5_cout $end
$var wire 1 V LessThan1~7_cout $end
$var wire 1 W LessThan1~9_cout $end
$var wire 1 X LessThan1~11_cout $end
$var wire 1 Y LessThan1~13_cout $end
$var wire 1 Z LessThan1~14_combout $end
$var wire 1 [ y~13_combout $end
$var wire 1 \ y.S7~regout $end
$var wire 1 ] Selector1~0_combout $end
$var wire 1 ^ max_reg|Q[3]~12_combout $end
$var wire 1 _ max_reg|Q[2]~10_combout $end
$var wire 1 ` MaxltMin~4_combout $end
$var wire 1 a MaxltMin~3_combout $end
$var wire 1 b MaxltMin~5_combout $end
$var wire 1 c Selector1~1_combout $end
$var wire 1 d y.S2~regout $end
$var wire 1 e LessThan2~1_cout $end
$var wire 1 f LessThan2~3_cout $end
$var wire 1 g LessThan2~5_cout $end
$var wire 1 h LessThan2~7_cout $end
$var wire 1 i LessThan2~9_cout $end
$var wire 1 j LessThan2~11_cout $end
$var wire 1 k LessThan2~13_cout $end
$var wire 1 l LessThan2~14_combout $end
$var wire 1 m y.S3~feeder_combout $end
$var wire 1 n y.S3~regout $end
$var wire 1 o y.S4~feeder_combout $end
$var wire 1 p y.S4~regout $end
$var wire 1 q y.S5~feeder_combout $end
$var wire 1 r y.S5~regout $end
$var wire 1 s y~12_combout $end
$var wire 1 t y.S6~regout $end
$var wire 1 u min_reg|Q[4]~10_combout $end
$var wire 1 v shift_reg|Q[1]~9_combout $end
$var wire 1 w max_reg|Q[1]~7_combout $end
$var wire 1 x shift_reg|Q[0]~7_combout $end
$var wire 1 y MaxltMin~1_combout $end
$var wire 1 z min_reg|Q[1]~8_combout $end
$var wire 1 { max_reg|Q[0]~5_combout $end
$var wire 1 | MaxltMin~0_combout $end
$var wire 1 } MaxltMin~2_combout $end
$var wire 1 ~ Selector2~0_combout $end
$var wire 1 !! Selector2~1_combout $end
$var wire 1 "! Selector2~2_combout $end
$var wire 1 #! y.S8~regout $end
$var wire 1 $! Found~0_combout $end
$var wire 1 %! max_reg|Q [4] $end
$var wire 1 &! max_reg|Q [3] $end
$var wire 1 '! max_reg|Q [2] $end
$var wire 1 (! max_reg|Q [1] $end
$var wire 1 )! max_reg|Q [0] $end
$var wire 1 *! min_reg|Q [4] $end
$var wire 1 +! min_reg|Q [3] $end
$var wire 1 ,! min_reg|Q [2] $end
$var wire 1 -! min_reg|Q [1] $end
$var wire 1 .! min_reg|Q [0] $end
$var wire 1 /! shift_reg|Q [4] $end
$var wire 1 0! shift_reg|Q [3] $end
$var wire 1 1! shift_reg|Q [2] $end
$var wire 1 2! shift_reg|Q [1] $end
$var wire 1 3! shift_reg|Q [0] $end
$var wire 1 4! mem_blk|altsyncram_component|auto_generated|q_a [7] $end
$var wire 1 5! mem_blk|altsyncram_component|auto_generated|q_a [6] $end
$var wire 1 6! mem_blk|altsyncram_component|auto_generated|q_a [5] $end
$var wire 1 7! mem_blk|altsyncram_component|auto_generated|q_a [4] $end
$var wire 1 8! mem_blk|altsyncram_component|auto_generated|q_a [3] $end
$var wire 1 9! mem_blk|altsyncram_component|auto_generated|q_a [2] $end
$var wire 1 :! mem_blk|altsyncram_component|auto_generated|q_a [1] $end
$var wire 1 ;! mem_blk|altsyncram_component|auto_generated|q_a [0] $end
$var wire 1 <! Data~combout [7] $end
$var wire 1 =! Data~combout [6] $end
$var wire 1 >! Data~combout [5] $end
$var wire 1 ?! Data~combout [4] $end
$var wire 1 @! Data~combout [3] $end
$var wire 1 A! Data~combout [2] $end
$var wire 1 B! Data~combout [1] $end
$var wire 1 C! Data~combout [0] $end
$var wire 1 D! mem_blk|altsyncram_component|auto_generated|ram_block1a0_PORTADATAOUT_bus [7] $end
$var wire 1 E! mem_blk|altsyncram_component|auto_generated|ram_block1a0_PORTADATAOUT_bus [6] $end
$var wire 1 F! mem_blk|altsyncram_component|auto_generated|ram_block1a0_PORTADATAOUT_bus [5] $end
$var wire 1 G! mem_blk|altsyncram_component|auto_generated|ram_block1a0_PORTADATAOUT_bus [4] $end
$var wire 1 H! mem_blk|altsyncram_component|auto_generated|ram_block1a0_PORTADATAOUT_bus [3] $end
$var wire 1 I! mem_blk|altsyncram_component|auto_generated|ram_block1a0_PORTADATAOUT_bus [2] $end
$var wire 1 J! mem_blk|altsyncram_component|auto_generated|ram_block1a0_PORTADATAOUT_bus [1] $end
$var wire 1 K! mem_blk|altsyncram_component|auto_generated|ram_block1a0_PORTADATAOUT_bus [0] $end
$upscope $end
$upscope $end
$enddefinitions $end
#0
$dumpvars
1!
b0 "
0#
0$
0)
0(
0'
0&
0%
0*
0+
x,
0-
1.
x/
10
11
12
13
14
05
16
07
08
09
0:
0;
0<
1=
0>
0?
0@
1A
0B
1C
0D
0E
0F
1G
0H
1I
1J
1K
1L
0M
0N
1O
0P
0Q
0R
0S
1T
0U
1V
0W
1X
0Y
0Z
0[
0\
0]
1^
1_
1`
0a
1b
0c
0d
0e
1f
0g
1h
0i
1j
0k
0l
0m
0n
0o
0p
0q
0r
0s
0t
1u
0v
1w
0x
1y
0z
1{
0|
0}
0~
0!!
0"!
0#!
1$!
0)!
0(!
0'!
0&!
0%!
0.!
0-!
0,!
0+!
0*!
03!
02!
01!
00!
0/!
0;!
0:!
09!
08!
07!
06!
05!
04!
0C!
0B!
0A!
0@!
0?!
0>!
0=!
0<!
0K!
0J!
0I!
0H!
0G!
0F!
0E!
0D!
$end
#1000
0!
03
04
0,
#2000
1!
13
14
1,
#2901
1#
1:
1;
0,
#3000
0!
03
04
1,
#4000
1!
13
14
0,
1)!
1(!
1'!
1&!
1%!
1K!
1;!
0`
1x
1v
0y
0b
1E
1R
1S
0T
1U
0V
1W
0X
1Y
1Z
#5000
0!
03
04
1,
#6000
1$
1!
18
13
14
0,
1]
19
1c
#7000
0!
03
04
1,
#8000
1!
13
14
0,
1d
1<
1m
0u
0]
0K
0=
0c
#9000
0!
03
04
1,
#10000
1!
13
14
0,
13!
12!
1n
11!
0d
10!
1F
0{
15
0A
0G
0w
1z
1o
1H
0_
17
0m
0I
0^
1@
1)
1(
1'
1&
1w
06
0z
1_
1^
0J
1?
07
0O
0@
1P
#11000
0!
03
04
1,
#12000
1!
13
14
0,
1p
0n
1q
0o
#13000
0!
03
04
1,
#14000
1!
13
14
0,
1r
0p
1J!
1I!
1H!
1G!
1:!
19!
18!
17!
1[
0q
#15000
0!
03
04
1,
#16000
1!
13
14
0,
0r
1\
0[
1]
1K
1c
#17000
0!
03
04
1,
#18000
1!
13
14
0,
0)!
1d
0\
0%!
1m
0]
0K
0R
0c
#19000
0!
03
04
1,
#20000
1!
13
14
0,
1n
0d
00!
1o
0m
0^
1O
1@
0&
0P
#21000
0!
03
04
1,
#22000
1!
13
14
0,
1p
0n
1q
0o
#23000
0!
03
04
1,
#24000
1!
13
14
0,
1r
0p
0G!
07!
1[
0q
#25000
0!
03
04
1,
#26000
1!
13
14
0,
0r
1\
0[
1]
1K
1c
#27000
0!
03
04
1,
#28000
1!
13
14
0,
1d
0&!
0\
1m
1y
0E
0]
0K
0c
#29000
0!
03
04
1,
#30000
1!
13
14
0,
1n
01!
0d
1o
0_
0?
17
0m
0'
0@
#31000
0!
03
04
1,
#32000
1!
13
14
0,
1p
0n
1q
0o
#33000
0!
03
04
1,
#34000
1!
13
14
0,
1r
0p
0H!
08!
1[
0q
#35000
0!
03
04
1,
#36000
1!
13
14
0,
0r
1\
0[
1]
1K
1c
#37000
0!
03
04
1,
#38000
1!
13
14
0,
1d
0'!
0\
1m
0v
0]
0K
0c
#39000
0!
03
04
1,
#40000
1!
13
14
0,
02!
1n
0d
0w
16
1z
1o
0m
0(
07
#41000
0!
03
04
1,
#42000
1!
13
14
0,
1p
0n
1q
0o
#43000
0!
03
04
1,
#44000
1!
13
14
0,
1r
0p
0I!
09!
1[
0q
#45000
0!
03
04
1,
#46000
1!
13
14
0,
0r
1\
0[
1]
1K
1c
#47000
0!
03
04
1,
#48000
1!
13
14
0,
0(!
1d
0\
1`
0x
1m
0]
0K
1b
0c
#49000
0!
03
04
1,
#50000
1!
13
14
0,
03!
1n
0d
0F
1{
05
1A
1o
0m
0)
1G
1w
0z
0H
1_
1I
1^
1J
#51000
0!
03
04
1,
#52000
1!
13
14
0,
1p
0n
1q
0o
#53000
0!
03
04
1,
#54000
1!
13
14
0,
1r
0p
0J!
0:!
1[
0q
#55000
0!
03
04
1,
#56000
1!
13
14
0,
0r
1\
0[
1]
1K
1~
1"!
#57000
0!
03
04
1,
#58000
1!
13
14
0,
1#!
1)!
1(!
1'!
1&!
0\
1%!
0`
1x
1v
0y
0b
1E
0]
0K
1R
1*
0~
#59000
0!
03
04
1,
#60000
1!
13
14
0,
#61000
0!
03
04
1,
#62000
1!
13
14
0,
#63000
0!
03
04
1,
#64000
1!
13
14
0,
#65000
0!
03
04
1,
#66000
1!
13
14
0,
#67000
0!
03
04
1,
#68000
1!
13
14
0,
#69000
0!
03
04
1,
#70000
1!
13
14
0,
#71000
0!
03
04
1,
#72000
1!
13
14
0,
#73000
0!
03
04
1,
#74000
1!
13
14
0,
#75000
0!
03
04
1,
#76000
1!
13
14
0,
#77000
0!
03
04
1,
#78000
1!
13
14
0,
#79000
0!
03
04
1,
#80000
1!
13
14
0,
#81000
0!
03
04
1,
#82000
1!
13
14
0,
#83000
0!
03
04
1,
#84000
1!
13
14
0,
#85000
0!
03
04
1,
#86000
1!
13
14
0,
#87000
0!
03
04
1,
#88000
1!
13
14
0,
#89000
0!
03
04
1,
#90000
1!
13
14
0,
#91000
0!
03
04
1,
#92000
1!
13
14
0,
#93000
0!
03
04
1,
#94000
1!
13
14
0,
#95000
0!
03
04
1,
#96000
0$
1!
08
13
14
0,
0"!
09
#97000
0!
03
04
1,
#98000
1!
13
14
0,
0#!
0<
1u
1K
1=
0*
#99000
0!
03
04
1,
#100000
b1 "
1!
1C!
13
14
0,
0S
1T
0U
1V
0W
1X
0Y
0Z
#101000
0!
03
04
1,
#102000
1!
13
14
0,
#103000
0!
03
04
1,
#104000
1!
13
14
0,
#105000
0!
03
04
1,
#106000
1$
1!
18
13
14
0,
1]
19
1c
#107000
0!
03
04
1,
#108000
1!
13
14
0,
1d
1<
1m
0u
0]
0K
0=
0c
#109000
0!
03
04
1,
#110000
1!
13
14
0,
13!
12!
1n
11!
0d
10!
1F
0{
15
0A
0G
0w
1z
1o
1H
0_
17
0m
0I
0^
1@
1)
1(
1'
1&
1w
06
0z
1_
1^
0J
1?
07
0O
0@
1P
#111000
0!
03
04
1,
#112000
1!
13
14
0,
1p
0n
1q
0o
#113000
0!
03
04
1,
#114000
1!
13
14
0,
1r
0p
1J!
1I!
1H!
1G!
1:!
19!
18!
17!
1!!
0q
0T
1U
0V
1W
1"!
0X
1Y
1Z
0!!
1[
0"!
#115000
0!
03
04
1,
#116000
1!
13
14
0,
0r
1\
0[
1]
1K
1c
#117000
0!
03
04
1,
#118000
1!
13
14
0,
0)!
1d
0\
0%!
1m
0]
0K
0R
0c
#119000
0!
03
04
1,
#120000
1!
13
14
0,
1n
0d
00!
1o
0m
0^
1O
1@
0&
0P
#121000
0!
03
04
1,
#122000
1!
13
14
0,
1p
0n
1q
0o
#123000
0!
03
04
1,
#124000
1!
13
14
0,
1r
0p
0G!
07!
1[
0q
#125000
0!
03
04
1,
#126000
1!
13
14
0,
0r
1\
0[
1]
1K
1c
#127000
0!
03
04
1,
#128000
1!
13
14
0,
1d
0&!
0\
1m
1y
0E
0]
0K
0c
#129000
0!
03
04
1,
#130000
1!
13
14
0,
1n
01!
0d
1o
0_
0?
17
0m
0'
0@
#131000
0!
03
04
1,
#132000
1!
13
14
0,
1p
0n
1q
0o
#133000
0!
03
04
1,
#134000
1!
13
14
0,
1r
0p
0H!
08!
1[
0q
#135000
0!
03
04
1,
#136000
1!
13
14
0,
0r
1\
0[
1]
1K
1c
#137000
0!
03
04
1,
#138000
1!
13
14
0,
1d
0'!
0\
1m
0v
0]
0K
0c
#139000
0!
03
04
1,
#140000
1!
13
14
0,
02!
1n
0d
0w
16
1z
1o
0m
0(
07
#141000
0!
03
04
1,
#142000
1!
13
14
0,
1p
0n
1q
0o
#143000
0!
03
04
1,
#144000
1!
13
14
0,
1r
0p
0I!
09!
1[
0q
#145000
0!
03
04
1,
#146000
1!
13
14
0,
0r
1\
0[
1]
1K
1c
#147000
0!
03
04
1,
#148000
1!
13
14
0,
0(!
1d
0\
1`
0x
1m
0]
0K
1b
0c
#149000
0!
03
04
1,
#150000
1!
13
14
0,
03!
1n
0d
0F
1{
05
1A
1o
0m
0)
1G
1w
0z
0H
1_
1I
1^
1J
#151000
0!
03
04
1,
#152000
1!
13
14
0,
1p
0n
1q
0o
#153000
0!
03
04
1,
#154000
1!
13
14
0,
1r
0p
0J!
0:!
1[
0q
1T
0U
1V
0W
1X
0Y
0Z
1!!
0[
1"!
#155000
0!
03
04
1,
#156000
1!
13
14
0,
1#!
0r
0$!
0!!
1*
1+
#157000
0!
03
04
1,
#158000
1!
13
14
0,
#159000
0!
03
04
1,
#160000
1!
13
14
0,
#161000
0!
03
04
1,
#162000
1!
13
14
0,
#163000
0!
03
04
1,
#164000
1!
13
14
0,
#165000
0!
03
04
1,
#166000
1!
13
14
0,
#167000
0!
03
04
1,
#168000
1!
13
14
0,
#169000
0!
03
04
1,
#170000
1!
13
14
0,
#171000
0!
03
04
1,
#172000
1!
13
14
0,
#173000
0!
03
04
1,
#174000
1!
13
14
0,
#175000
0!
03
04
1,
#176000
1!
13
14
0,
#177000
0!
03
04
1,
#178000
1!
13
14
0,
#179000
0!
03
04
1,
#180000
1!
13
14
0,
#181000
0!
03
04
1,
#182000
1!
13
14
0,
#183000
0!
03
04
1,
#184000
1!
13
14
0,
#185000
0!
03
04
1,
#186000
1!
13
14
0,
#187000
0!
03
04
1,
#188000
1!
13
14
0,
#189000
0!
03
04
1,
#190000
1!
13
14
0,
#191000
0!
03
04
1,
#192000
1!
13
14
0,
#193000
0!
03
04
1,
#194000
1!
13
14
0,
#195000
0!
03
04
1,
#196000
0$
1!
08
13
14
0,
0"!
09
#197000
0!
03
04
1,
#198000
1!
13
14
0,
0#!
0<
1$!
1u
1K
1=
0*
0+
#199000
0!
03
04
1,
#200000
b11 "
b10 "
1!
0C!
1B!
13
14
0,
1S
0f
1g
0h
1i
0j
1k
1l
1)!
1(!
1'!
1&!
1%!
0`
1x
1v
0y
0b
1E
1R
#201000
0!
03
04
1,
#202000
1!
13
14
0,
#203000
0!
03
04
1,
#204000
1!
13
14
0,
#205000
0!
03
04
1,
#206000
1$
1!
18
13
14
0,
1]
19
1c
#207000
0!
03
04
1,
#208000
1!
13
14
0,
1d
1<
1m
0u
0]
0K
0=
0c
#209000
0!
03
04
1,
#210000
1!
13
14
0,
13!
12!
1n
11!
0d
10!
1F
0{
15
0A
0G
0w
1z
1o
1H
0_
17
0m
0I
0^
1@
1)
1(
1'
1&
1w
06
0z
1_
1^
0J
1?
07
0O
0@
1P
#211000
0!
03
04
1,
#212000
1!
13
14
0,
1p
0n
1q
0o
#213000
0!
03
04
1,
#214000
1!
13
14
0,
1r
0p
1J!
1I!
1H!
1G!
1:!
19!
18!
17!
1s
0q
1f
0T
0g
1U
1h
0V
0i
1W
1j
0X
0k
1Y
0l
1Z
0s
1[
#215000
0!
03
04
1,
#216000
1!
13
14
0,
0r
1\
0[
1]
1K
1c
#217000
0!
03
04
1,
#218000
1!
13
14
0,
0)!
1d
0\
0%!
1m
0]
0K
0R
0c
#219000
0!
03
04
1,
#220000
1!
13
14
0,
1n
0d
00!
1o
0m
0^
1O
1@
0&
0P
#221000
0!
03
04
1,
#222000
1!
13
14
0,
1p
0n
1q
0o
#223000
0!
03
04
1,
#224000
1!
13
14
0,
1r
0p
0G!
07!
1[
0q
#225000
0!
03
04
1,
#226000
1!
13
14
0,
0r
1\
0[
1]
1K
1c
#227000
0!
03
04
1,
#228000
1!
13
14
0,
1d
0&!
0\
1m
1y
0E
0]
0K
0c
#229000
0!
03
04
1,
#230000
1!
13
14
0,
1n
01!
0d
1o
0_
0?
17
0m
0'
0@
#231000
0!
03
04
1,
#232000
1!
13
14
0,
1p
0n
1q
0o
#233000
0!
03
04
1,
#234000
1!
13
14
0,
1r
0p
0H!
08!
1[
0q
#235000
0!
03
04
1,
#236000
1!
13
14
0,
0r
1\
0[
1]
1K
1c
#237000
0!
03
04
1,
#238000
1!
13
14
0,
1d
0'!
0\
1m
0v
0]
0K
0c
#239000
0!
03
04
1,
#240000
1!
13
14
0,
02!
1n
0d
0w
16
1z
1o
0m
0(
07
#241000
0!
03
04
1,
#242000
1!
13
14
0,
1p
0n
1q
0o
#243000
0!
03
04
1,
#244000
1!
13
14
0,
1r
0p
0I!
09!
1[
0q
#245000
0!
03
04
1,
#246000
1!
13
14
0,
0r
1\
0[
1]
1K
1c
#247000
0!
03
04
1,
#248000
1!
13
14
0,
0(!
1d
0\
1`
0x
1m
0]
0K
1b
0c
#249000
0!
03
04
1,
#250000
1!
13
14
0,
03!
1n
0d
0F
1{
05
1A
1o
0m
0)
1G
1w
0z
0H
1_
1I
1^
1J
#251000
0!
03
04
1,
#252000
1!
13
14
0,
1p
0n
1q
0o
#253000
0!
03
04
1,
#254000
1!
13
14
0,
1r
0p
0J!
0:!
1[
0q
0f
1T
1g
0U
0h
1V
1i
0W
0j
1X
1k
0Y
1l
0Z
1s
0[
#255000
0!
03
04
1,
#256000
1!
13
14
0,
1t
0r
1u
1]
0s
1~
1"!
#257000
0!
03
04
1,
#258000
1!
13
14
0,
1#!
0t
1.!
0u
0]
1|
1*
0~
1}
#259000
0!
03
04
1,
#260000
1!
13
14
0,
#261000
0!
03
04
1,
#262000
1!
13
14
0,
#263000
0!
03
04
1,
#264000
1!
13
14
0,
#265000
0!
03
04
1,
#266000
1!
13
14
0,
#267000
0!
03
04
1,
#268000
1!
13
14
0,
#269000
0!
03
04
1,
#270000
1!
13
14
0,
#271000
0!
03
04
1,
#272000
1!
13
14
0,
#273000
0!
03
04
1,
#274000
1!
13
14
0,
#275000
0!
03
04
1,
#276000
1!
13
14
0,
#277000
0!
03
04
1,
#278000
1!
13
14
0,
#279000
0!
03
04
1,
#280000
1!
13
14
0,
#281000
0!
03
04
1,
#282000
1!
13
14
0,
#283000
0!
03
04
1,
#284000
1!
13
14
0,
#285000
0!
03
04
1,
#286000
1!
13
14
0,
#287000
0!
03
04
1,
#288000
1!
13
14
0,
#289000
0!
03
04
1,
#290000
1!
13
14
0,
#291000
0!
03
04
1,
#292000
1!
13
14
0,
#293000
0!
03
04
1,
#294000
1!
13
14
0,
#295000
0!
03
04
1,
#296000
0$
1!
08
13
14
0,
0"!
09
#297000
0!
03
04
1,
#298000
1!
13
14
0,
0#!
0<
1u
1K
1=
0*
#299000
0!
03
04
1,
#300000
b11 "
1!
1C!
13
14
0,
0S
1)!
1(!
1'!
1&!
1%!
0.!
0|
0`
1x
0}
1v
0y
0b
1E
1R
#301000
0!
03
04
1,
#302000
1!
13
14
0,
#303000
0!
03
04
1,
#304000
1!
13
14
0,
#305000
0!
03
04
1,
#306000
1$
1!
18
13
14
0,
1]
19
1c
#307000
0!
03
04
1,
#308000
1!
13
14
0,
1d
1<
1m
0u
0]
0K
0=
0c
#309000
0!
03
04
1,
#310000
1!
13
14
0,
13!
12!
1n
11!
0d
10!
1F
0{
15
0A
0G
0w
1z
1o
1H
0_
17
0m
0I
0^
1@
1)
1(
1'
1&
1w
06
0z
1_
1^
0J
1?
07
0O
0@
1P
#311000
0!
03
04
1,
#312000
1!
13
14
0,
1p
0n
1q
0o
#313000
0!
03
04
1,
#314000
1!
13
14
0,
1r
0p
1J!
1I!
1H!
1G!
1:!
19!
18!
17!
1s
0q
1f
0g
1U
1h
0V
0i
1W
1j
0X
0k
1Y
0l
1Z
0s
1[
#315000
0!
03
04
1,
#316000
1!
13
14
0,
0r
1\
0[
1]
1K
1c
#317000
0!
03
04
1,
#318000
1!
13
14
0,
0)!
1d
0\
0%!
1m
0]
0K
0R
0c
#319000
0!
03
04
1,
#320000
1!
13
14
0,
1n
0d
00!
1o
0m
0^
1O
1@
0&
0P
#321000
0!
03
04
1,
#322000
1!
13
14
0,
1p
0n
1q
0o
#323000
0!
03
04
1,
#324000
1!
13
14
0,
1r
0p
0G!
07!
1[
0q
#325000
0!
03
04
1,
#326000
1!
13
14
0,
0r
1\
0[
1]
1K
1c
#327000
0!
03
04
1,
#328000
1!
13
14
0,
1d
0&!
0\
1m
1y
0E
0]
0K
0c
#329000
0!
03
04
1,
#330000
1!
13
14
0,
1n
01!
0d
1o
0_
0?
17
0m
0'
0@
#331000
0!
03
04
1,
#332000
1!
13
14
0,
1p
0n
1q
0o
#333000
0!
03
04
1,
#334000
1!
13
14
0,
1r
0p
0H!
08!
1[
0q
#335000
0!
03
04
1,
#336000
1!
13
14
0,
0r
1\
0[
1]
1K
1c
#337000
0!
03
04
1,
#338000
1!
13
14
0,
1d
0'!
0\
1m
0v
0]
0K
0c
#339000
0!
03
04
1,
#340000
1!
13
14
0,
02!
1n
0d
0w
16
1z
1o
0m
0(
07
#341000
0!
03
04
1,
#342000
1!
13
14
0,
1p
0n
1q
0o
#343000
0!
03
04
1,
#344000
1!
13
14
0,
1r
0p
0I!
09!
1[
0q
0U
1V
0W
1X
0Y
0Z
1!!
0[
1"!
#345000
0!
03
04
1,
#346000
1!
13
14
0,
1#!
0r
0$!
0!!
1*
1+
#347000
0!
03
04
1,
#348000
1!
13
14
0,
#349000
0!
03
04
1,
#350000
1!
13
14
0,
#351000
0!
03
04
1,
#352000
1!
13
14
0,
#353000
0!
03
04
1,
#354000
1!
13
14
0,
#355000
0!
03
04
1,
#356000
1!
13
14
0,
#357000
0!
03
04
1,
#358000
1!
13
14
0,
#359000
0!
03
04
1,
#360000
1!
13
14
0,
#361000
0!
03
04
1,
#362000
1!
13
14
0,
#363000
0!
03
04
1,
#364000
1!
13
14
0,
#365000
0!
03
04
1,
#366000
1!
13
14
0,
#367000
0!
03
04
1,
#368000
1!
13
14
0,
#369000
0!
03
04
1,
#370000
1!
13
14
0,
#371000
0!
03
04
1,
#372000
1!
13
14
0,
#373000
0!
03
04
1,
#374000
1!
13
14
0,
#375000
0!
03
04
1,
#376000
1!
13
14
0,
#377000
0!
03
04
1,
#378000
1!
13
14
0,
#379000
0!
03
04
1,
#380000
1!
13
14
0,
#381000
0!
03
04
1,
#382000
1!
13
14
0,
#383000
0!
03
04
1,
#384000
1!
13
14
0,
#385000
0!
03
04
1,
#386000
1!
13
14
0,
#387000
0!
03
04
1,
#388000
1!
13
14
0,
#389000
0!
03
04
1,
#390000
1!
13
14
0,
#391000
0!
03
04
1,
#392000
1!
13
14
0,
#393000
0!
03
04
1,
#394000
1!
13
14
0,
#395000
0!
03
04
1,
#396000
0$
1!
08
13
14
0,
0"!
09
#397000
0!
03
04
1,
#398000
1!
13
14
0,
0#!
0<
1$!
1u
1K
1=
0*
0+
#399000
0!
03
04
1,
#400000
b111 "
b101 "
b100 "
1!
0C!
0B!
1A!
13
14
0,
1S
0T
1g
0h
1i
0j
1k
1l
1)!
1'!
1&!
1%!
1v
0y
1E
1R
#401000
0!
03
04
1,
#402000
1!
13
14
0,
#403000
0!
03
04
1,
#404000
1!
13
14
0,
#405000
0!
03
04
1,
#406000
1$
1!
18
13
14
0,
1]
19
1c
#407000
0!
03
04
1,
#408000
1!
13
14
0,
1d
1<
1m
0u
0]
0K
0=
0c
#409000
0!
03
04
1,
#410000
1!
13
14
0,
12!
1n
11!
0d
10!
1w
06
0z
1o
1_
17
0m
1^
1@
1(
1'
1&
1?
07
0O
0@
1P
#411000
0!
03
04
1,
#412000
1!
13
14
0,
1p
0n
1q
0o
#413000
0!
03
04
1,
#414000
1!
13
14
0,
1r
0p
1I!
1H!
1G!
19!
18!
17!
1s
0q
0g
1U
1h
0V
0i
1W
1j
0X
0k
1Y
0l
1Z
0s
1[
#415000
0!
03
04
1,
#416000
1!
13
14
0,
0r
1\
0[
1]
1K
1c
#417000
0!
03
04
1,
#418000
1!
13
14
0,
0)!
1d
0\
0%!
1m
0]
0K
0R
0c
#419000
0!
03
04
1,
#420000
1!
13
14
0,
1n
0d
00!
1o
0m
0^
1O
1@
0&
0P
#421000
0!
03
04
1,
#422000
1!
13
14
0,
1p
0n
1q
0o
#423000
0!
03
04
1,
#424000
1!
13
14
0,
1r
0p
0G!
07!
1[
0q
#425000
0!
03
04
1,
#426000
1!
13
14
0,
0r
1\
0[
1]
1K
1c
#427000
0!
03
04
1,
#428000
1!
13
14
0,
1d
0&!
0\
1m
1y
0E
0]
0K
0c
#429000
0!
03
04
1,
#430000
1!
13
14
0,
1n
01!
0d
1o
0_
0?
17
0m
0'
0@
#431000
0!
03
04
1,
#432000
1!
13
14
0,
1p
0n
1q
0o
#433000
0!
03
04
1,
#434000
1!
13
14
0,
1r
0p
0H!
08!
1[
0q
#435000
0!
03
04
1,
#436000
1!
13
14
0,
0r
1\
0[
1]
1K
1c
#437000
0!
03
04
1,
#438000
1!
13
14
0,
1d
0'!
0\
1m
0v
0]
0K
0c
#439000
0!
03
04
1,
#440000
1!
13
14
0,
02!
1n
0d
0w
16
1z
1o
0m
0(
07
#441000
0!
03
04
1,
#442000
1!
13
14
0,
1p
0n
1q
0o
#443000
0!
03
04
1,
#444000
1!
13
14
0,
1r
0p
0I!
09!
1[
0q
1g
0U
0h
1V
1i
0W
0j
1X
1k
0Y
1l
0Z
1s
0[
#445000
0!
03
04
1,
#446000
1!
13
14
0,
1t
0r
1u
1]
0s
1c
#447000
0!
03
04
1,
#448000
1!
13
14
0,
1-!
0t
1d
0C
0x
0u
0]
1m
1v
0c
#449000
0!
03
04
1,
#450000
1!
13
14
0,
03!
12!
1n
0d
0F
1{
05
1A
1w
06
0z
1o
0m
0)
1(
0w
16
1z
17
07
#451000
0!
03
04
1,
#452000
1!
13
14
0,
1p
0n
1q
0o
#453000
0!
03
04
1,
#454000
1!
13
14
0,
1r
0p
0J!
1I!
0:!
19!
1s
0q
0g
1U
1h
0V
0i
1W
1j
0X
0k
1Y
0l
1Z
0s
1[
#455000
0!
03
04
1,
#456000
1!
13
14
0,
0r
1\
0[
1]
1K
1c
#457000
0!
03
04
1,
#458000
1!
13
14
0,
1)!
0(!
1d
0\
1|
1C
1x
1m
0]
0K
1}
0v
0c
#459000
0!
03
04
1,
#460000
1!
13
14
0,
13!
02!
1n
0d
1F
0{
15
0A
1G
1w
0z
1o
0m
1)
0(
0G
0w
1z
0H
1_
1H
0_
1I
1^
0I
0^
1J
0J
#461000
0!
03
04
1,
#462000
1!
13
14
0,
1p
0n
1q
0o
#463000
0!
03
04
1,
#464000
1!
13
14
0,
1r
0p
1J!
0I!
1:!
09!
1[
0q
1g
0U
0h
1V
1i
0W
0j
1X
1k
0Y
1l
0Z
1s
0[
#465000
0!
03
04
1,
#466000
1!
13
14
0,
1t
0r
1u
1]
0s
1~
1"!
#467000
0!
03
04
1,
#468000
1!
13
14
0,
1#!
0t
0u
0]
1*
0~
#469000
0!
03
04
1,
#470000
1!
13
14
0,
#471000
0!
03
04
1,
#472000
1!
13
14
0,
#473000
0!
03
04
1,
#474000
1!
13
14
0,
#475000
0!
03
04
1,
#476000
1!
13
14
0,
#477000
0!
03
04
1,
